พอ เริ่ม สาย หน่อย ชาว บ้าน ใน หมู่บ้าน ก็ จะ มี มา ช่วย งาน กัน โดยที่ ไม่ ต้อง สั่ง ทุก คน จะ รู้ ว่า ตัวเอง ต้อง ทำ ไร เรียก ง่าย ๆว่าไป ตาม ถนัด ของ แต่ละ คน เลย ส่วน สาว ๆที่ มี ความ ถนัด ใน เรื่อง ศิลปะ ก็ จะ เข้า มา ช่วย ว่า ที่ เจ้าสาว จัด บ้าน ตาม รูป ที่ เห็น ( ขออภัย เพื่อน ๆทุก คน ที่ ไม่ รี ทัสห น้า ออก อิอิ ) &nbsp;&nbsp;&nbsp;&nbsp;&nbsp;&nbsp;&nbsp;&nbsp;&nbsp;&nbsp;&nbsp;&nbsp;&nbsp;&nbsp;&nbsp;&nbsp;&nbsp;&nbsp;&nbsp;&nbsp;&nbsp;&nbsp;&nbsp;&nbsp;&nbsp;&nbsp;&nbsp;&nbsp;&nbsp;&nbsp;&nbsp;&nbsp;&nbsp;&nbsp;&nbsp;&nbsp;&nbsp;&nbsp;&nbsp;&nbsp;&nbsp;&nbsp;&nbsp;&nbsp;&nbsp;&nbsp;&nbsp;&nbsp;&nbsp;&nbsp;&nbsp;&nbsp;&nbsp;&nbsp;&nbsp;&nbsp;&nbsp;&nbsp;&nbsp;&nbsp;&nbsp;&nbsp;&nbsp;&nbsp;&nbsp;&nbsp;&nbsp;&nbsp;&nbsp;&nbsp;&nbsp;&nbsp;&nbsp;&nbsp;&nbsp;&nbsp;&nbsp;&nbsp;&nbsp;&nbsp;&nbsp;&nbsp; 
เขียน เพลง ดังๆ เยอะ มวากกก มาก จริงๆ แอบ ชอบ นามปากกา ที่ ใช้ เขียน เพลง ปัจจุบัน ดู พี่ เค้า มี ความ สุข กะ การ เล่น กะ หมา มาก กว่า เขียน เพลง 5555 
ได้ ระยะทาง เท่ากับ เดิน รอบ สี่เหลี่ยม ๑๒x๑๔ เมตร เหมือน ขับ รถ จาก กทม ไป อุบล .... คุณ ขับ ไป ทิศ ตะวันออก ก่อน แล้ว ขับ ขึ้น เหนือ ถึง ปลายทาง .... ก็ ได้ ระยะทาง เท่ากับ ... ขับ ขึ้น เหนือ ก่อน แล้ว ขับ ไป ตะวันออก ( สมมุติ ว่า มี ถนน แบบ ตั้ง กับ นอน เท่านั้น ) .... ระยะทาง จะ สั้น ลง ได้ ถ้า ขับ เฉียง หรือ ทะ แยง เท่านั้น ! 
ปอ สาม ลำบาก ขนาด นี้ เลย เหรอ ..... จำ ได้ ตอน เรา เรียน ปอ สาม ข้อสอบ ง่าย กว่า นี้ เยอะ เลย งือๆ ทำ ได้ บ้าง ไม่ ได้ บ้าง ไม่ อยาก คิด อาย เด็ก 
สสวท เดี๋ยวนี้ เริ่ม ตั้งแต่ ประถม เลย หรอ นี่ สมัย ผม เริ่ม ตอน มัธยม... 
ดูเหมือน ไร้ สาระ มาก ... จริง ๆ ครับ 
โหววววววววววววว ใฝ่ฝัน มาก กก กก กก กก กก กก กก ต้อง ไป ตาม รอย ให้ ได้ เลย ค่ะ 
คือ เมื่อกี้ ลองบวกๆ ดู แล้ว ค่า อาหาร รวม ประ มาน หมื่น กว่า บาท ไป 40 วัน ตก วัน ละ 300 กว่า ๆเลย คิด แบบ ถูก มาก เลย อ่ะ ค่ะ เพราะ ที่ เคย ไป รู้สึก จะ หนัก ค่า กิน แค่ น้ำ ขวด หนึ่ง ก็ เกือบ ร้อย ถ้า ไป อีก ก็ อยาก หา ทาง ลด ค่าใช้จ่าย เรื่อง ของกิน อ่ะ ค่ะ ถ้า ทำ ได้ 
ผม อยาก ให้ เจ้านาย บ้า กาม จัง 
คุณ นี่ เหมือน เจ้านาย เรา เป๊ะ เลย เรา เรียก เจ่า นาย เรา ลับหลัง ว่า พ่อ เพราะ มี เจ้านาย ดี เหมือน มี พ่อ ( กึ่ง ประชด กึ่ง รัก กึ่ง หมั่น ใส้ ) 
จัด ไป แระ แต่ ประเทศ Aruba ก็ งาม แท้ ถึง กับ ต้อง ไป หา ใน แผนที่ เลย ทีเดียว ว่า มัน อยู่ ส่วน ไหน ของ โลก 
ลง เท่านี้ ละ กัน ค่ะ ใคร อุตส่าห์ เข้า มา ดู ถึง ตรง นี้ ก็ ขอบคุณ มาก ๆค่า เอา เบน นี่ ไป นอน ก่อน 
เอา จริงๆ นะ ตกใจ กับ เบน นี่ มา สอง ครั้ง ... คือ ปกติ ไม่ ค่อย ได้ สนใจ โอเคเบน นี่ เล่น ทีม ชาติ จำ ได้ เพราะ หน้า แก่ ( ขอโทษ ค่า าา ) วันดีคืนดี เกิด ครึ้ม อก ครึ้ม ใจ ไป เปิด ดูคลิป U21 ชุด นี้ ก็ เฮ้ย ยยยย เบน นี่ นี่ หว่า ... ละ อีกที ก็ กระทู้ นี้ เพิ่ง สำนึก ได้ ว่า เบน นี่ อยู่ ใน โฆษณา นูเทลล่า ชุด เดียว กับ อิ ปรือ น้อย มัทส์ ก่อนหน้า นี้ ก็ เหมือน คุณ จขกท เลย คน นี้ ใคร อะ สงสัย ไม่ ได้ ติด ทีม ชาติ แล้ว ....Pray for Benni\'s hair ... 
ปัจจุบัน เห็น รูป เบน นี่ แล้ว จะ โฟ โต้ ช็อป ผม เพิ่ม ให้ โดย อัตโนมัติ ค่ะ &nbsp;&nbsp;555 แอบ คิด ว่า ถ้า เบน นี่ ยัง หน้า แบบ เดิม อยู่ สงสัย จะ ฮ็อท ไม่ แพ้ นุ้ งด วร์ม อิอิ 
ฮาเร็ม ของ พี่ มัทส์ ล่ะ คะ ... รอย ส์ ก็ดี อี ริค ก็ โดน 
จาก รูป ตอนหนุ่มๆ ไม่ น่า เชื่อ เลย ว่า ผม เบน นี่ จะ ไป ไว ขนาด นั้น ตอน หนุ่ม ๆกรุบ กรอบ น่ารัก มาก เลย # กาลเวลา ช่าง ทำร้าย 
ก็ เห็น จาก ข่าว สื่อ ทาง สเปน ค่ะ จริง เท็จ ยัง ไม่ ทราบ แต่ ก็ คิด ไว้ แล้ว ตั้งแต่ เคดิ ร่า ไม่ เซ็น สัญญา ต่อ ของ ฟรี แบบ นี้ พี่ เสือ ชอบ นัก แถม เป็น เยอรมัน ด้วย 
หนุ่ม ๆฝรั่ง ก็ แบบ นี้ แหละ ตอน เข้า วัยรุ่น กับ ยี่สิบ ต้นๆ หล่อ ระเบิด แต่ เผลอ พริบตาเดียว เค้า แก่ ไป เรียบร้อย แล้ว ... เอา น่า สังขาร รูปลักษณ์ จะ ด้อย ลง ยังไง ฝีมือ ฝีเท้า ต่างหาก ล่ะ ที่ พัฒนา ยิ่ง แก่ ยิ่ง เก๋า ไป เรื่อย ๆตาม อายุ สวน ทาง กับ หน้าตา เก่ง ซะ อย่าง ดี ทั้ง ใน และ นอก สนาม ซะ อย่าง อย่า ห่วง เลย แฟน บอล รัก อยู่ แล้ว ... ไม่ มี ใคร ไม่ แก่ เรา แก่ ไป ด้วยกัน น่ะ แหละ กลัว อะไร ... 
นึก ไป นึก มา พี่ เบน นี่ ยัง โอเค นะ ลอง ดู 3<-plus->1 หน่อ นี่ สิ อายุ เท่ากัน ส่วน กัปปิตัน 10 ปี ที่แล้ว ยังไง ตอน นี้ ก็ อย่าง งั้น 
กัปตัน หน้า เด็ก 
คุณ พระ ช่วย !! เบน นี่ เคย มี ผม ด้วย เหรอ 
ว้าว จุด ประกาย ไปเที่ยว ฮิ โร ชิม่า เลย 
อู้ ววว เพิ่ง รู้ นะ เนี่ย ว่า เกี้ยว ซ่า &nbsp;&nbsp; ต้อง มี พิมพ์ เฉพาะ ด้วย มิน่า ผม ทำ เท่าไหร่ &nbsp;&nbsp; มัน ก็ ห่อ ออก มา ห่วย สิ้น ดี ทุก ครั้ง นึก ว่า ทำ แบบ ห่อ กระ หรี่ ปั๊บ 
โหววว แฟนพันธ์ุ แท้ เลย ครับ ผม จำ ไม่ ได้ สัก อัน ครับ อิอิ 
อุ๊ปส์...... ไม่ กล้า เม้น เดี๋ยว เค้า รู้ หมด 
ไอ ตัว นี้ เลย จำ ได้ ตื่นเต้น มาก สมัย นั้น 
ขอ ซื้อ ต่อ เหอะ 
ทัน หมด เลย ชอบ มาก ๆๆ เมื่อก่อน ที่ บ้าน ขาย รองเท้า นักเรียน ด้วย สนุกสนาน ตลอด 
รูป แรก สุด แถม มา จาก โคโดโมแน่ๆ มัน ต้อง ใช่ ไม่ใช่ ของ แถม จาก รองเท้า นักเรียน หรอก 
ว้าวว เป็น ทาส แมว อีก คน น่ารัก อ่ะ แล้ว สรุป ค่าใช้จ่าย แพง กว่า คน ไหม ค่ะ อ่าน ๆที่ ผ่าน มา ค่าใช้จ่าย เดินทาง ของ สัตว์ แพง กว่า คน 
เป็นความ รู้ ใหม่ จริงๆ ค่ะ ไม่ เคย รู้ เลย ว่า เอา สัตว์เลี้ยง ขึ้น ห้อง โดยสาร ได้ ซึ่ง ก็ เห็นด้วย กับ หลาย ความเห็น เรื่อง ว่า ถ้า คน เป็น ภูมิแพ้ ขน สัตว์ ตรง นี้ ไม่ รู่ ว่า สายการบิน มี การ แจ้ง ผู้ โดยสาร มั๊ย เพราะ บิน มา หลาย ที ก็ ไม่ เคย เห็น มี ระบุ ใน การ จอง , ใน boarding pass หรือ ใน เอกสาร อะไรก็แล้วแต่ ว่า เที่ยวบิน นี้ เป็น เที่ยวบิน ที่ อนุญาต ให้ นำ สัตว์เลี้ยง เข้า ห้อง โดยสาร ได้ ( คือ เรา เป็น คน รัก สัตว์ นะ คะ ไม่ มี ปัญหา ถ้า เที่ยวบิน นั้น จะ มี หมา แมว ไป กับ เรา ด้วย ) &nbsp;&nbsp; ซึ่ง กระทู้ นี้ ทำให้ เรา มี ความรู้ ใหม่ คือ อยาก จะ confirm ว่า เรา เป็น คน นึง ที่ ไม่ ทราบ เลย ว่า มี เที่ยวบิน แบบ นี้ น่ะ ค่ะ ชื่นชม เจ้าของ กระทู้ ที่ เตรียมตัว อย่าง ดี ก่อน ที่ จะ นำ น้อง แมว ขึ้น เครื่อง แต่ พอ เห็น คำตอบ ที่ ตอบ ใจความ เห็น ที่ 27-11 ดูใจ ร้าย กับ มนุษย์ ไปนิดนึงอ่ะ ค่ะ เพราะ สิ่ง ที่ เค้า ติง มา ก็ คือ ว่า คน ส่วนมาก ไม่ รู้ ว่า มี การ นำ สัตว์เลี้ยง เข้า ไป อยู่ ใน ห้อง โดยสาร ได้ ทุก คน อยาก เซฟ ตัวเอง หาก เป็น ภูมิแพ้ มาก ๆ แต่ ถ้า เค้า ไม่ รู้ เค้า จะ เซฟ ตัวเอง ยังไง ล่ะ ค่ะ มัน จะ ดู ตลก ( หาก ไม่ รู้ มา ก่อน ) ถ้า จะ ถาม เจ้าหน้าที่ ว่า มี หมา หรือ แมว ขึ้น เครื่อง หรือเปล่า ก่อนหน้า นี้ ถ้า เรา ได้ยิน ใคร ถาม อย่าง นี้ เรา อาจ จะ หัวเราะ เลย ก็ ได้ ซึ่ง เจ้าของ กระทู้ จะ เป็น ตัวแทน คน รัก สัตว์ ที่ สามารถ ให้ ข้อมูล และ คุย กัน อย่าง มี เมตตา ( ต่อ คน และ สัตว์ อย่าง เท่าเทียม กัน ) ได้ ว่า มัน มี เที่ยวบิน แบบ นี้ และ เค้า ป้องกัน แล้ว โดย ไม่ ให้ นำ สัตว์เลี้ยง ออก มา จาก กระเป๋า ทำให้ เกิด ความรู้ สึก ที่ ดี ขึ้น ได้ ดี กว่า จะ มา บอก ว่า แค่ นี้ ไม่ รู้ เหรอ? แพ้ ก็ ต้อง ป้องกัน ตัวเอง สิ ส่วน กรณี คน เป็น พ่อ ที่ อาจ จะ ใช้ คำพูด ดู ไม่ เข้าหู ก็ เพราะ เค้า พูด ใน ฐานะ พ่อ ที่ มี ลูกสาว เป็น ภูมิแพ้ รุนแรง ที่ หาก เกิด ปัญหา ขึ้น จะ ไม่ใช่ แค่ ช็อค เครียด ตกใจ ฯลฯ แต่ อาจ จะ เสียชีวิต ได้ ค่ะ แค่ ความเห็น อันนึง นะ คะ หาก ทำให้ ไม่ พอใจ ก็ ต้อง ขออภัย ด้วย นะ คะ 
งง กับ LAX นะ อันตราย ยังไง เหรอคะ?? 
ชอบ มาก แต๊ง ยู 
มัน เป็น สิ่ง ที่ จำเป็น จริงๆ นะ 
โอ้ ว.... เพิ่ง รู้ ก็ วันนี้ แฮะ 
ไป ขี่ รถ เพื่อน มา ไม่ มี กระจก มอง หลัง จะ เลี้ยว ที เปลี่ยน เลน ที เสียว ตลอด &nbsp;&nbsp;555 
ที่ ผม เจอ &nbsp;&nbsp; ทั้ง รถยนต์ &nbsp;&nbsp; ทั้ง มอไซค์ นั่นแหละ ที่ ไม่ เปิด ไฟ เลี้ยว .. เจอ บ่อย ด้วย .. ส่วน ตัว ผม นาน ๆครั้ง จะ ลืม เปิด เหมือนกัน ผม เดา ว่า &nbsp;&nbsp;จขกท.&nbsp;&nbsp; คง ขับ รถยนต์ ไป ทำงาน มอไซค์ นาน ๆใช้ที 
ผม สงสัย อยู่ อย่าง เดียว เวลา มอ ไซ เลี้ยว ซ้าย ออก จาก ซอย ทำไม ถึง ไม่ มอง รถ ทาง ขวา กัน เลย ไม่ กลัว ตาย กัน บ้าง เลย รึ ไง ครับ เห็น ทั้ง เด็ก ทั้ง แก่ เลย ความจริง มัน น่า จะ เป็น สัญชาตญาณ ของ มนุษย์ ด้วย ซ้ำ ที่ จะ ต้อง มอง ทาง ขวา ก่อน เพื่ ความ ปลอดภัย ของ ตัวเ ง เจอ บ่อย มาก น่า จะ มี การ รณรงค์ กัน บ้าง ผม กลัว จะ ชน เข้า สัก วัน แล้ว จะ ผิด หรือเปล่า เห็น เขา บอก ยังไง รถ ใหญ่ ก็ ผิด แต่ ที่ สำคัญ ครับ ทำไม ถึง ไม่ กลัว ตาย กัน บ้าง 
ไอ้ เรา ก็ หลง เข้า มา ว่า จะ มี อะไร ใหม่ๆ แหม่ๆๆ อัน พวก นี้ ผม ใช้ ประจำ ง่ะ ขอ ผ่าน 5 
กระจก หลัง นี้ &nbsp;&nbsp; ตอน แรก แรก มอง ตลอด เลย &nbsp;&nbsp; ไม่ เคย ชน ไม่ เคย เกิด อะไร หลังๆ ขี้เกียจ มอง เลย ชน ซะ เลย เสา ( รถยนต์ ) 
จะ กด ไฟ เลี้ยว พลาด ไป บีบ แตร ทุกที 
0 o\" 
ผม เคย สัมภาษณ์ งาน กับ ต่าง ชาติ ออสเตรเลีย ผม ถาม เขา ว่า ไม่ มี การ ทดสอบ วัด ความสามารถ หรือ ครับ เขา ตอบ กลับ มา ว่า จะ ทดสอบ ทำไม คุณ มี เวลา 3-4 เดือน ใน การ พิสูจน์ ตัวเอง ถ้า คุณ ทำ ไม่ ได้ ผม ก็ ไม่ จำเป็นต้อง จ้าง คุณ ต่อ .... 
อืม ม์&nbsp;&nbsp; ถ้า ไม่ มี วุฒิ ก็ ควร พัฒนา ตัวเอง จน เป็น เจ้านาย ตัวเอง ใช่ไหม คะ ขอบคุณ มาก ๆสำหรับ แง่ คิด ค่ะ 
ขอบคุณ ทั้ง สอง ท่าน ค่ะ ( คห .33 และ 33-1 ) ดีใจ จริง ที่มา ตั้ง กระทู้ ถาม ข้อ สงสัย แล้ว ได้รับ คำอธิบาย ที่ ชัดเจน ทั้งหมด เป็น ประสบการณ์ ตรง &nbsp;&nbsp; และ จข กท. ไม่ มี โอกาส รู้ แจ้ง แบบ \" ตระหนัก \" เลย ค่ะ ขอบคุณ อีก ครั้ง ค่ะ 
ก็ ถูก แล้ว นิคะ 7-1 แต่ง เข้า ไป อยู่ บ้าน ผู้หญิง อยู่ กับ ครอบครัว ฝ่าย หญิง ถ้า คุณ อยู่ ต่าง จังหวัด ( บ้านนอก ตัวอย่าง เช่น บ้าน แม่ ของ เรา อยู่ ศรี ษะเกษ ) ผู้ บ่าว แต่ง เข้า บ้าน ผู้ สาว ทุก ครัวเรือน ค่ะ หรือไม่ก็ ปลูก เรือน อยู่ ใน ละแวก นั้น 
ธรรมเนียม อะไร &nbsp;&nbsp; เห็น มี แต่ ซื้อ บ้าน แยก ออกจา เรือน กัน ทั้งนั้น 
เรื่อง นี้ แล้วแต่ เลย ครับ พี่ ชาย ผม ก็ แต่ง ไป ก็ ไป อยู่ ทาง zone บ้าน ผู้หญิง จริงๆ ๆก็ แล้วแต่ สะดวก มาก กว่า &nbsp;&nbsp; เพราะ ทาง บ้าน ผู้หญิง ไกล้ ที่ทำงาน มาก กว่า 
ไม่ เกี่ยวกับ ประเพณี แต่อย่างใด ขึ้นอยู่กับ ความ พร้อม และ ฐานะ ทาง บ้าน และ ความ รัก ของ ทั้ง คู่ ครับ ใคร พร้อม กว่า ก็ จะ ดึง อีก ฝ่าย ได้ ครับ 
ผม อยู่ อีสาน แต่ง แล้ว ถือว่า เป็น หน้า ที่ ต้อง ไป อยู่ บ้าน ฝ่าย หญิง ครับ ดี ที่ มี ทั้ง บ้าน ให้ อยู่ มา รู้ ที่ หลัง มี ที่ ไร่ อีก 50 กว่า ไร่ ต้อง ดูแล อีก เหนื่อย เลย ครับ วัน หยุด เสาร์ อาทิตย์ ไม่ เข้าใจ ว่า ภาค กลาง ทำไม ฝ่าย หญิง ต้อง ไป อยู่ บ้าน ฝ่าย ชาย ประเทศ เดียวกัน ทำไม ทำ เนียม ไม่ เหมือนกัน เหมือนกัน อย่าง เดียว ค่า สินสอด 
ก็ แล้วแต่ นะ ครับ ปกติ ผม ใช้ อยู่ ที่ ระยะ 50-105mm 
โอ้ ววววววววววววววววววววววววววววววววววววว 
แบบ นี้ จขกท บอก ยอม เจอ ผี ดี ฝ่า 
ผม เชื่อ ว่า ท้าว เวสสุวรรณ ที่ ผม ห้อย คอ ไว้ จะ ช่วย เรื่อง แบบ นี้ ได้ และ ที่ ผ่าน มา ผม ตระเวณไป ร้อยเอ็ด เจ็ด ย่าน น้ำ ก็ ไม่ เคย เจอ เลย สัก ครั้ง เดียว ส่วน หนึ่ง อาจ มา จาก ความ เชื่อ ที่ เชื่อมั่น นั่นเอง &nbsp;&nbsp;&nbsp; โปรด ใช้ วิจารณาณ ใน การ รับฟัง 
ผม เคย นอน ใน ป่า คน เดียว เจอ ผี มา แล้วด้วย ครับ ไม่ เห็น เป็น ยังไง พอ เช้า ก็ เผ่น ออก จาก ป่า แค่ นั้น เอง 
ถ้า เอาชนะ ความ กลัว ไม่ ได้ ลำบาก นะ คะ ขอ แนะนำ ว่า นอน ห้อง dorm คะ ถ้า กลัว แต่ เรา ว่า คน น่ากลัว กว่า นะ 
อยาก บอก ว่า ดู ทัน ตอน นี้ แหล่ะ 55<-plus-> 3 ประสาน ฮอลแลนด์ คลาสสิคมากๆ 
ว้าว ... แต่ง ได้ สวย น่ารัก มาก ๆ เลย จ้า าา 
จำ ได้ Google เมื่อก่อน ยัง พ่วง ใน yahoo search อยู่ เลย 
อืม !! ไม่ เป็นไร ครับ เรา มา เริ่ม จาก ทำ โรง รถ ก่อน แล้วกัน 
เกิด .......... ก่อน ทู๊กอัน เลย &gt;&lt;\" 
จริง นะ ค่ะ แบบ คุย ไป คุย มาก ลาย เป็น ว่า รุ่น เดียวกัน ซะ งั้น เพราะ ของเล่น แต่ละ อย่าง เหมือนกัน หมด เลย ๕๕๕<-plus-> 
จริง หรอ คะ อย่า ให้ รู้ นะ อิอิ 
ฮึ๊ยยย เกิด มา ไม่ เคย เห็น เลย แต่ น่า เล่น มาก ค่ะ 
รุ่น เดียวกัน เลย ว่าแต่ คุณ ผู้ชาย โดด ยาง !!! 
วง ตา วัน อร๊ายยยย เรา ก็ เกิด ทัน เหมือนกัน นะ 555 
เรา มี ชุด ขนม ครก เหมือนกัน แต่ ไม่ ฟิน เท่า ขุด ดิน นะ 
ผม อายุ 18 ยัง เคย เล่น ทุก อย่าง เลย คับ 555 
ทำไม เรา ทัน ทุก อัน เลย !! 55555 
กระดาษ ที่ พับ สี่ ด้าน นี่ พับ ยังไง อะคะ ที่ ใน รูป อยู่ หน้า โน้ตบุค อยาก เล่น อีก อะ แต่ จำ วิธี พับ ไม่ ได้ แล้ว ตอน ประถม เล่น กัน สนุกสนาน 
ทัน ทุก อัน เลย อ่ะ &nbsp;&nbsp;&nbsp; 
ทุก สิ่ง อย่าง .. ได้ ผ่าน มือ เรา มา หมด แล้ว 555555555555 อยาก รู้ เหมือนกัน นะ ว่า เด็ก สมัย นี้ เค้า เล่น แบบ เรา เมื่อ ตอน สมัย ก่อน รึ ป่าว ? 
อะไร อะ ไม่ใช่ หญ้า หัว ไก่ นี่ !! 
กา ก้า 
โห ........... โดน ตี ๒ ที เลย แต่ ได้ เงิน ตั้ง ๕ บาท เกร๋ๆ แต่ ประเด็น คือ ๕ บาท อยู่ ได้ เป็น เดือน ............. 
ตกหลุม เข้า แล้ว 
เล่น ยังไง คะ หมาก ขุม 
ถ้า หมา มัน พูด ได้ คง จะ บอก ว่า 
ผม นี่ ลั่น เลย 55555555 
ถ้า กลั่น สาร อาหาร ที่ ส่ง ผ่าน เลือด อาจ จะ ใช่ ค่ะ แต่ ถ้า แปล ว่า เอา เลือด มนุษย์ สดๆมา แปลง เป็น น้ำนม สี ขาว อัน นี้ มัน แปลก ๆไป ไหม 
ถ้า พูด ถึง เพลง ก็ แค่ ภาษา กวี พา ไป .. เพลง นี้ แต่ง เพื่อให้ ลูก ๆ ซาบซึ้ง ถึง บุญคุณ ของ แม่ ก็ เลย เขียน ให้ มี น้ำหนัก มาก เป็น พิเศษ ไม่ เห็นด้วย กับ ความเห็น ที่ ว่า เพราะ เต้านม เซลส์ ที่ ใช้ ผลิต น้ำนม ถูก หล่อเลี้ยง ด้วย เลือด จึง ไม่ ผิด ที่ จะ บอก ว่า น้ำนม มา จาก เลือด เพราะ ร่างกาย ไม่ว่า ส่วน ไหน ก็ ต้อง หล่อเลี้ยง ด้วย เลือด ทั้งนั้น ถ้า เช่นนั้น ของเหลว , สาร คัด หลั่ง อื่น ๆ ก็ ควร มี ความหมาย สูงส่ง เช่นกัน เพราะ มัน \" กลั่น \" จาก เลือด .. ที่ หล่อเลี้ยง ร่างกาย เรา อยู่ อือ มม ม&nbsp;&nbsp; แปลก ๆ นะ 
นม คือ เลือด ที่ ไม่ มี ออกซิเจน คง ไม่ใช่ อ้ะ ค่ะ เลือด ไม่ มี ออกซิเจน ก็ เลือด ดำ ไง 
คุ้น ๆชื่อ นะ คะ เรา เจอ กัน ที่ ตุรกี รึป่าวคะ 
ก่อน ไป ก็ อ่าน เจอ เหมือนกัน ค่ะ พอ ไป จริง เจอ เข้า มา ชวน คุย หลาย คน อยู่ เหมือนกัน ค่ะ แต่ ไม่ ทราบ ว่า เป็น เพราะ ไป กัน หลาย คน หรือ คุย กับ เขา ไม่ รู้ เรื่อง กัน แน่ เขา เลย มา คุย แป๊บ ๆแล้ว ก็ จาก ไป 
ไม่ ทราบ ว่า หลง ทาง ไป โรงแรม เหมือนกัน รึเปล่า ค่ะ หรือ มี แต่ กลุ่ม จขก ที่ หลง อิอิ 
ถาม ตลอด ทาง เหมือนกัน ค่ะ มี ป้า อยู่ คน นึง อุตส่าห์ วิ่ง ตาม ข้าม ถนน มา เพื่อ บอก ทาง สุดท้าย บอก ทาง ผิด อยู่ ดี ทั้งๆที่ ตอน แรก ถาม ฝรั่ง ที่มา เที่ยว เหมือนกัน แล้ว แต่ ก็ ยัง เชื่อ ป้า คน ท้องถิ่น ที่ บอก ให้ เดิน ไป ผิด ทาง นึก แล้ว ก็ ยัง ขำ อยู่ เลย ค่ะ คือ ทาง ที่ ป้าบ อก ให้ ไป เปลี่ยว มาก 555 
มัน เข้า กัน ดี ค่ะ ที่ อิ สาน เจอ กะปิ แบบ คห .5 แต่ ไม่ ได้ ลอง 
กิน เฝอ น้ำ ใส ที่ ลาว ก็ มี ผัก สด ค่ะ แต่ จิ้ม กับ กะปิ เข้า กัน ดี 
เช้า นี้ เรา จะ ล่อง แพ ยาง เป็น เวลา 3 ชม. แล้วไป นั่ง รถ 4x4 เป็น ระยะทาง อีก 11 กม.&nbsp;&nbsp; ใช้ เวลา 1 ชม. เพื่อ ไป ยัง จุด กาง เต้น ท์กัน ค่ะ ตื่นเต้น ๆเพิ่ง เคย ล่อง แพ เป็น ครั้ง แรก ว่ายน้ำ ก็ ไม่ เป็น เอ... ว่าแต่ คุณ แฟน ชวน มา ล่อง แพ เนี่ย มี จุด ปรสงค์ อะไร แอบแฝง ป่าว นะ 
ไก่ จริง ค่ะ ไม่ กลัว คน เลย 
โห .... ขี่ รถ ท้งวัน กลับ ไป ทำงาน อีก แล้ว จะ มี แรง ตรวจ คนไข้ เหรอ ครับ แต่ ยังไง เด่ว จะ ตาม รอย กระทู้ นี้ แน่นอน ครับ 
ที่ไหน อ่ะคะ น่า สนุก จัง ค่ะ 
ว่า จะ ลอง ไป สัมผัส ทีลอซู หน้า ฝน ดู ซัก ครั้ง ใน ชีวิต เหมือนกัน ค่ะ ท่า จะ สวยงาม อลังการ มาก 
ใคร มี ภาพ น้ำตก ช่วง หน้า ฝน บ้าง ครับ &nbsp;&nbsp; อยาก เห็น เวลา น้ำ เยอะ ๆเป็น ยังไง 
บี้ นี่ สุด ๆเลย อ่ะ ไม่ คิด ว่า จะ มา ได้ ไกล ถึงขนาด นี้ 
อะ เหย &nbsp;&nbsp;... ตาฝาด ไป หรือเปล่า กั้ง เนี่ย นะ มา แรง กว่า แกงส้ม กับ ฮั่น พระเจ้า &nbsp;&nbsp;....&nbsp;&nbsp; คิด ได้ ยังไง เนี่ย 
เป็น แคลเซียม คือ อะไร หรอ คะ ? ขอ ให้ หาย ไวๆนะคะ ( (; 
เคย ได้ยิน ว่า ถ้า รักษา ให้ เลือก เลย ว่า อยาก หา หมอ ไหน อ่ะ ค่ะ หมอ ไทย ? หมอ ฝรั่ง ? หมอ จีน ? ไม่ ควร รักษา ร่วม เรา เลย เลือก รักษา แผน ปัจจุบัน ค่ะ รบกวน คห .10 เล่า เรื่อง หมอ จีน ให้ ฟังได้ ไหม คะ ? รู้สึก ว่า น่า สนใจ มาก 
ขอบคุณ จขกท มาก ๆ ที่ ตอบ คำถาม เรา พอดี ที่ เรา เป็น คือ เนื้องอก และ ตัด ออก แค่ ข้าง เดียว ยัง ต้อง ตาม ผล เช่นกัน ขอบคุณ อีก ครั้ง และ เป็น กำลังใจ ให้ จขกท ค่ะ ^ ^ 
พี่ เป็น กำลังใจ ให้ นะ คะ ขอ ให้ หาย เร็ว ๆสุขภาพ แข็งแรง ค่ะ 
สู้ ๆค่ะ เข้มแข็ง ค่ะ เป็น กำลังใจ ให้ จขกท นะ คะ &nbsp;&nbsp; เขียน ได้ ดี มาก เลย ค่ะ เมื่อ ไม่ นาน มา นี้ พี่ ก็ พึ่ง ไป ขึ้นเขียง ผ่าตัด เนื้องอก ที่ ไท รอยด์ มา ข้าง หนึ่ง เช่นกัน ฮอร์ โมน ปกติ ไม่ มี อาการ ใดๆ เลย แต่ สังเกต เห็น เอง ว่า มี ก้อน นูน เวลา กลืน น้ำลาย คน ทั่วไป ไม่ สังเกต ไม่ เห็น ค่ะ โชคดี หน่อย ที่ ไม่ เป็น ก้อน เนื้อร้าย แต่ ก็ ก็ ตัดสินใจ ผ่า ออก ดี กว่า เพราะ แอบ กลัว เนื่องจาก ญาติ เป็น มะเร็ง กัน เยอะ มาก ตอน นี้ ก็ พบ หมอ ทุก ๆหก เดือน ปล. ตอน แรก นึก ว่า ไม่ ค่อย มี ใคร เป็น โรค พวก นี้ เพราะ หา ข้อมูล ก็ มัก จะ เจอะ ข้อมูล คล้าย ๆกัน มี คน แชร์ ประสบการณ์ น้อย ( ตัว พี่ หาไม่ เก่ง ด้วย แหละ 555 ) พอ ไป หา หมอ เท่านั้น แหละ สังเกต เห็น ว่า มี คน เป็น พอสมควร และ ส่วนใหญ่ เป็น ผญ. อายุ ประมาณ 19-25 ปี เยอะ ม๊วก ค่ะ 
กรี๊ด ดดดดดดดดดดดดดดดดดดดดดดดดดดดดดดดดดดดดดดดดดดดดดดดดดดดดดดดดดดดดดดดดดดดดดดดดดดด 
นึก ว่า บอย แบนด์ . . . 
ท่าน ประธาน รึป่าว ครับ คน พรีเซนท์ ถึง ขั้น โชว์ ถือ ถุง ชอปปิ้ง เลย 555 
อ้าว .... 
ทำไม ด้าน คน ขับ .... ไม่ มี มือ จับ ... เหนือ ศีรษะ &nbsp;&nbsp; น้องง งง งง ( สงสัย ราคา จะ แพง ) 
รถ ก็ สวย ดี นะ &nbsp;&nbsp; คิด เหมือน ความเห็น 58&nbsp;&nbsp; รี วิว แบบ มี อคติ ไป รึเปล่า ? 
เห็น ตัว X3 ไฮไลน์ ดีเซล เคลม ว่า 17 กม / ลิตร ครับ แต่ เซล แจ้ง ว่า กำลัง จะ ออกตัว ปรับ โฉม ใหม่ อีก 2 เดือน นี้ เอง แต่ าเสียดาย ที่ CX 5 ไม่ ยอม พัฒนา ให้ เบาะ แถว 2 ปรับ ได้ บ้าง มัน ชัน มาก จริงๆ &nbsp;&nbsp; คุย กับ ผจก. ฝ่าย ปชส. ของ มาสด้า &nbsp;&nbsp; แก แถ ว่า &nbsp;&nbsp; ออกแบบ มา ให้ เหมาะ กับ คน นั่ง ข้างหน้า ........... เวรกรรม 
เห็น เพื่อน แชร์ ใน ไลน์ เหมือนกัน ค่ะ ยัง ว่า เศรษฐกิจ ก็ ไม่ เห็นดี งาน การ ไม่ ต้อง ทำ จะ หยุด ยาว อะไร นักหนา 
หยุด เยอะ ก็ ด่า ไม่ หยุด ก็ ด่า ประสาท !!! 
ดอกไม้ ประจำ ชาติ ของ มาเลเซีย คือ ดอก ชบา ( Hibiscus rosa-sinensis ) ค่ะ ไม่ใช่ ดอก พู่ ระหง 
ชาว บ้าน บอก ประมาณ 1000 ไร่ &nbsp;&nbsp; กำลัง ทยอย บาน แล้ว ก็ ทยอย เหี่ยว ไป พร้อม ๆกัน 
ถ้า ไป สิ้น เดือน นี่ จะ ช้า ไป ไหม ครับ นี่ หรือ ไป ได้ เรื่อยๆ ถึง เมื่อ ไหร ครับ 
#10 ระยะ เวลา : ยัง ไม่ ระบุ ห้าง นี้ ก็ ทำ ออก มา ระดับ ตระการตา แต่ จะ ตรา ตรึงใจ ไม๊ บาง ปี ก็ ใช่ บาง ปี ก็ เฉยๆ ค่ะ อย่าง ปี ที่แล้ว เป็น แนว ปั่น จักรยาน เก็บ พลังงาน อะไร ก็ ไม่ รุ๊! ปี นี้ ยัง อุบ ไต๋ อยู่ แต่ แว๊บๆ เหมือน เห็น ข่าว PR ว่า เป็น ลูกแก้ว กลมๆ ถ้า งาน จริง เริ่ม แล้ว จะ มาโพสต์ บอก ค่ะ ดู รูป ปี เก่า ( งั่ก ) กัน ไป ก่อน แล้วกัน 
... 
สะดุด ตรง หา ภรรยา Caucasian พอ เลื่อน มา ดู ชื่อ ล็อคอิน 
อะไร ครับ ??? 
แปลกใจ จความคิด ของ คน สมัย นี้ นะ ครับ น่า จะ กลัว ลูก เกิด มา ชั่ว มาก กว่า กลัว ลูก เกิด มา ขี้เหร่ นะ 
ใคร เป็น คน กำหนด คะ ว่า แบบ นี้ สวย แบบ นี้ หล่อ แบบ นี้ ขี้เหร่ ทุก อย่าง มัน เป็น เรื่อง ของ การตลาด ทั้งนั้น เรา ถูก ครอบงำ ด้วย ภาพ ยนต์ โฆษณา และ การตลาด อื่นๆ เพื่อ ผล ทาง ธุรกิจ เป็น ส่วนใหญ่ จริง มนุษย์ เป็น สิ่ง มหัศจรรย์ นะ มี สมอง มี อวัยวะ ที่ มี ประโยชน์ สามารถ สร้างสรรค์ สิ่ง ต่างๆ ได้ มากมาย ความ สวย ความ หล่อ มัน เป็น แค่ ส่วน เสริม เท่านั้น เรา เลือก หน้าตา ให้ ลูก ไม่ ได้ แต่ เรา ปลูกฝัง ให้ ลูก มี ทัศนคติ ที่ เป็น บวก ได้ สร้าง บุคลิค ภาพ ที่ ดี ให้ ลูก ได้ สร้าง พื้นฐาน จิตใจ ที่ ดี ให้ ลูก ได้ และ มี อีก หลาย อย่าง ที่ คุณ จะ สร้าง ให้ ลูก ได้ เชื่อ ว่า คุณ เป็น คน จิตใจ ดี นะ ห่วง ความรู้ สึก ของ ลูก ทั้งๆ ที่ เค้า ยัง ไม่ เกิด ด้วย ซ้ำ ยังไง ก็ ขอ อวยพร ให้ มี ครอบครัว ที่ อบอุ่น นะ คะ 
พ่อ ผม ดำ ขี้เหร่ ผม ออก มา ก็ ยัง ขี้เหร่ นิดๆ แต่ ขาว ก็ เลย พอ ไหว แต่ สุดท้าย ไม่ว่า หน้าตา จะ หล่อ สวย ยังไง มัน ก็ โรยรา ไป ตาม วัย สังขาร ไม่ เที่ยง คุณ ต้อง เข้าใจ สัจ จธรรม ตรง นี้ ด้วย คน รูปร่าง หน้าตา ขี้ริ้ว ขี้เหร่ แต่ สมอง ดี มี น้ำใจ น่า คบ กว่า คน หล่อ สวย งี่เง่า เอาแต่ใจ เยอะ เลย 
คุณ โกรธ พ่อ แม่คุณ ไม๊ ล่ะ ครับ และ คุณ ก็ ยัง มี แฟน ที่ พร้อม จะ อยู่ เคียงข้าง คุณ แปล ว่า มัน ไม่ใช่ อุปสรรค เลย อีก อย่าง สมัย นี้ เค้า มี แพทช์ แก้ บั๊ค แล้ว อย่าง น้อย การ ศัลยกรรม ใหญ่ ที่ คน ทั้ง ประเทศ ทำ กัน ( แต่ กลับ ไม่ นับว่า ศัลยกรรม งง ... ) ก็ คือ การ จัด ฟัน ก็ เปลี่ยน รูป หน้า ได้ ใน ระดับ นึง ส่วน ที่ เหลือ ก็ แต่งหน้า ทำ ผม ไม่ รู้ สิ ครับ ผม ว่า คน อย่าง ตุ๊กกี้ ชิง ร้อย ชิง ล้าน เค้า หน้าตา แย่ กว่า ผม แต่ เค้า กลับ มี ชีวิต ที่ ดี กว่า ผม 
ไม่ ต้อง คิดมาก หรอก ค่ะ เอา เงิน ให้ ลูก ไป ทำ ศัลยกรรม สิ คะ 
เห็น ภาพ เลย ครับ น้า &nbsp;&nbsp; จริงๆ บาง รูป โฟกัส เข้า แล้ว แบบ ขยับ เลย เบลอ นะ ครับ คง จะ ต้อง แก้ ด้วย ค่า f ที่ น้า บอก นี่ ตรง ประเด็น เลย ครับ จะ เก็บ ไป ปรับปรุง ครับ ขอบคุณ ครับ 
คุณ พนักงาน หมายเลข 12013 ครับ สรีระ นี้ ของ ผม ถ้า ผม ไม่ ให้ ใคร ถ่าย ถาม ว่า เค้า มี สิทธิ ถ่าย มั๊ย เป็น การ ละเมิด สิทธิ ส่วน บุคคล หรือไม่ คุณ ต้อง ศึกษา ให้ ดี ไม่ใช่ ทึกทัก เอา สมมุติ นะ มี คน ถ่ายรูป คุณ กำลัง อ้า ปาก กิน ข้าว เห็น เศษ ผัก เศษ เนื้อ ใน ปาก ชัดเจน แล้ว เอา ไปลง คุณ ยินดี หรือไม่ การ กระทำ อะไร ต้อง ขอ อนุ ญาติ เจ้าของ ก่อน ส่วน การ ถ่าย ถาพ ที่ บอก ว่า ภาพ นั้น เป็น ลิข สิทธิ ของ ผู้ ถ่าย กรณี นั้น คือ คุณ ไป จ้าง แบบ มา ถ่าย ภาพ นั้น จะ เป็น ลิข สิทธิ ของ คุณ เพราะ คุณ เป็น ผู้ ว่าจ้าง ให้ แบบ ทำงาน ให้ คุณ นะ ครับ 
ถ้า ไม่ บอก ว่า เยาว ราช ผม ก็ เดา ไม่ ถูก ว่า ที่ไหน เหมือนกัน ชอบ รูป คห 5 รถ เข็น รัง นก ครับ แววตา อย่าง โหด ^^ 
ผม กับ เพื่อน ตั้งเป้าหมาย ไว้ ว่า สักวันนึง เรา ( 5-6 คน ) จะ ปั่น จาก บ้าน อ.พนัส นิคม ไป ที่ อ่าง เก็บ น้ำ สี ยัด ( ฉะ เซิงเทรา ) แบบ เช้า เที่ยง ถึง บ่าย เย็น กลับ ถึง พนัส นิคม ก็ ประสบ ความ สำเร็จ ครับ ระยะทาง ไป 80กม. กลับ อีก 80กม. กลับ มา ถึง พนัสเย็นๆ พอดี ก่อน อาทิตย์ ตกดิน เสือ ภูเขา ยาง โต 2.75 หน้า หนาว นี่แหละ ครับ ย้อน ลม เล่น เอา หอบ ครับ ฮา ... 
ผม ว่า เอา จริงๆ นะ ก็ ไม่ ได้ ต่าง กัน มาก เลย นะ ครับ อยู่ กทม. ราคา อาหาร ตี ต่อ มื้อ เอา ถูก ที่สุด 30-50 บาท ต่าง จังหวัด อาจ จะ ถูก กว่า หน่อย 5-10 บาท อ่ะ ครับ ส่วน การ เดินทาง ต่าง จังหวัด ไป ทำงาน เน้น มอไซต์ รตยนต์ก้ เสีย ค่า น้ำมัน เดือน ๆนึ่ง ก็ เยอะ เหมือนกัน กับ ที่ กทม. bts mrt ถ้า เป็น คน ทำงาน จริงๆ ก็ บัตร รายเดือน ก็ ถูก ลง มา เยอะ ถ้า เทียบ กับ บัตร แบบ เติม เงิน ถ้า รู้จัก จัดการ รายจ่าย ผม ว่า ราคา ไม่ ได้ ต่าง จาก ต่าง จังหวัด เลย นะ 
เคย ไป ทำงาน โรงงาน ใน นิคม หรือ นอก นิคม ใน ต่าง จังหวัด ไหม ครับ สาม ปี ก่อน ผม เคย ไป ทำ Engineer จบ ใหม่ 10800 ไม่ พอ กิน หรอก ครับ เพื่อน ผม ทำ มา สาม ปี แล้ว ตอน นี้ ได้ 13000 เดือน ชน เดือน อยู่ เลย ครับ มา ทำ ใกล้ ๆ กทมแปป ก็ สอง หมื่น กว่า แล้ว 
ไม่ น่า ใช่ นะ ครับ 
เห้ย จริง ดิ !! 5555 บังเอิญ จัง 
ว้าว กำลัง จะ ไป เรียน ภาษา กับ หา งาน ทำ ที่ นู้น ปี หน้า แล้ว ตื่นเต้น มาก เรื่อง ภาษา ก็ ไม่ ค่อย จะ ได้ เรื่อง เท่าไหร่ 55 อยาก ได้ เพื่อน ไปซิดนีย์ ปี หน้า มั้ง จัง เลย 
เพื่อ ??? 
ขอ สอบถาม หน่อย ค่ะ เรา ไป yufuin 22-24 เดือน นี้ &nbsp;&nbsp; ซึ่ง คือ เสาร์ - จันทร์ ที่ จะ ถึง &nbsp;&nbsp;&nbsp;&nbsp;&nbsp;&nbsp; เช็ค ใน hyperdia&nbsp;&nbsp; แล้ว มี ขบวน yufuin no mori วิ่ง แสดง ว่า มี แน่นอน ใช่ หรือไม่ คะ &nbsp;&nbsp; กรณี จอง เสาร์ เช้า ไม่ ได้ เรา สามารถ ถาม ว่า มี เที่ยว ไหน ว่าง ที่ สถานี รถไฟ เพื่อ จอง เที่ยว ที่ ว่าง ได้ เลย หรือไม่ คะ 
JR Pass ครอบคลุม ขบวน Yufuin no mori มั้ย คะ &nbsp;&nbsp; หรือ ต้อง เสีย ค่า จอง ที่นั่ง เพิ่ม มั้ย 
ขนาด ขี้เกียจ นะ เนี่ย ..... ดก ซะ ยอด แทบ จะ หัก 
โอโห้ ลูก ดก มาก กก 
สาบาน ว่า ขี้เกียจ ใส่ ปุ๋ย ด้วย เพราะ มัน ดก มว๊ากกกกกกกกก 
อ๊ากกกกกก เยอะ มว๊ากกกกกกก ดิน ประเทศ เรา นี่ ดี จริงๆ ไม่ ตั้งใจ ปลูก ยัง ขึ้น ซะ ดก เลย 
เพราะว่า ตอนเด็กๆ เรา รู้จัก แค่ ไม่ กี่ อาชีพ ไง 
ตอนเด็กๆ อยาก เป็น กระเป๋า รถเมล์ รู้สึก เท่ ดี ได้ โหน รถเมล์ แล้ว เขย่าๆ ให้ มี เสียง เงิน ได้ ฉีก ตั๋ว เคย เอา สมุด มาม้วนๆ แล้ว เอา กระดาษ มา ม้วน ใส่ ไป ใน สมุด แล้ว เอา มา ฉีก เล่น กับ เพื่อน ด้วย แต่ พอ ขึ้นสาย 8 เท่านั้น แหละ ........... 
ใน ละคร มี อาชีพ พวก นี้ ให้ เรา ได้ เหนบ่อยๆ และ มันก้ เห็น ได้ ง่ายๆ จาม ชีวิต จริงๆ ของ เรา อ่ะ ครับ ^^ 
ไม่ เคย มี ความ ฝัน เลย 
ตอน เด็ก ๆอยาก เป้ นคน นี้ อ่ะ 
ตอน เด็ก ๆครู ถาม ว่า โต ขึ้น อยาก เป็น อะไร เรา ตอบ ว่า อยาก เป็น คน สูง ค่ะ เพราะ เรา ตัว เล็ก เข้า แถว ยืน คน แรก ตลอด โดน เพื่อน ล้อ ว่า อี เตี้ย ๆๆ 5555 พอ ตอน นี้ มี ลูก ครู ถาม ว่า โต ขึ้น อยาก เป็น อะไร ลูก ตอบ ว่า อยาก เป็น เป็น พี่ แฟรงค์ เพราะ พี่ แฟรงค์ รวย &nbsp;&nbsp;&nbsp; ปวด หัว เลย ค่ะ 5555 คง จะ ได้ เชื้อ แม่ มา เยอะ อ่ะ ค่ะ 
ความ หวัง ของ พ่อ แม่ ค่ะ เค้า ปลูกฝัง มา เค้า คิด ว่า มัน ดี แล้ว เหมาะสม แล้ว เมื่อก่อน ไม่ เห็น มี บอก ให้ ลูก เป็น แม่ค้า เลย ตอน นี้ อาชีพ ค้าขาย ได้ เงิน เยอะ มาก ตอน แรก แอบๆทำ ตอน หลัง จน แม่ ตกใจ ลา ออก ไม่ คิด ว่า มัน จะ อยู่รอด ถ้า ย้อน เวลา ได้ จะ เรียน การตลาด แทน ไม่ เรียน วิศวะ และ ไม่ ต่อ โท เสียดาย ทุน น่า จะ เป็น ประโยชน์ กับ คนอื่น มาก กว่า เรา ( ทุน รัฐบาล ม. นานา ชาติ แห่ง นึง ) &nbsp;&nbsp; อยาก มี brand เป็น ของ ตัวเอง ทุกวันนี้ ก็ เอา ของ คนอื่น เค้า มา ขาย ๆไป ก่อน ทำ ทุน 
ตอน เด็ก ๆผม อยาก เป็น โจร คับ เหตุผล เพราะ เพื่อน อยาก เป็น ตำรวจ 
ตอน เด็ก ก็ ฝัน แต่ อยาก เป็น จอม ยุทธ์ 
เอา เงิน ซ้อน แล้ว กระเป๋า ตัง มี แต่ แบงค์ ย่อยๆ <-plus-> บัตร ต่างๆ 
ทำไม ถึง เรียก สามี ว่า หล่อน ... 
เอิ่มมมมมม <-plus-><-plus-><-plus-> ผม ไม่ เคย เช็คตังค์ ใน กระเป๋า ตัง เลย ต้อง เช็ค บ้าง ละ 
เอา ไป แต่ ตัง นะ เห้ยย ATM อย่า เอา ไป 
แฟน ผม เขา ไม่ กล้า ทำ หรอก ครับ เอา เงิน ไป โดย ไม่ บอก คน ที่ ซี เรียส เรื่อง ศีล ไม่ ทำ แน่ ๆครอบครัว ผม ใช้ วิธี ทำ Budgeting เงิน เข้า ออก ไม่ ค่อย พลาด เกิน กว่า นี้ ถือว่า Plus สำหรับ ผม ผม ก็ ไม่ ต้องการ ให้ มา ตึง กับ ผม มาก ผม มี ลูกน้อง ที่ ต้อง ดูแล มี ลูกค้า ที่ ต้อง Take careWorking Capital จึง ต้อง มี เพียงพอ เสมอ ครับ 
น่า จะ บอกกล่าว นะ ครับ เพราะ เอา เงิน ไป ทำ สิ่ง ที่ ก่อให้เกิด ประโยชน์ ผู้ชาย บาง คน ก็ เก็บ เงิน ไม่ เป้น จริงๆ นั่นแหละ ไม่ เคย รู้ ว่า มี ตัง เท่าไหร่ เหลือ ใน กระเป๋า เท่าไหร่ มี ก็ จ่าย ไม่ มี ก็ กด แต่ ถ้า เจอ แบบ ผม เงิน ใน บัญชี 3 บัญชี วงเงิน บัตรเครดิต 2 ใบ เงิน ใน กระเป๋า เงิน ใน กองทุน มี เท่าไหร่ อยู่ ใน หัว หมด เวลา มัน หาย ไม่ มี ที่ ไป ที่มา จะ เสีย เซลล์ มาก บอก กัน ซัก นิด ดี กว่า ครับ ทำ เรื่อง ดีๆ บอก ไป เลย ฮะ 
ก็ ไม่ น่า ผิด มากมาย อ่ะ ไร นะ ครับ แต่ ถ้า วันนึง สามี คุณ เข้าใจ ว่า ้งิน ใน กระเป๋า มัน มี เท่านี้ แล้ว จำเป็นต้อง จ่าย เงิน จำนวน นั้น แต่ พอ ตอน จ่าย เงิน ไม่ พอ สามี คุณ จะ งาน เข้า เอา นะ ครับ 
เบอร์เกอร์ ชิ้น โต ดี เต็มปาก เต็ม คำ ดี ซื้อ ที่ แมค โคร ชิ้น บาง กว่า เยอะ เลย 
เท่าที่ ผม เห็น สมัย ก่อน ใน น้ำ มี ปลา ใน นา มี ข้าว ถ้า วาง คัต ได้ ปลา แน่นอน เยอะ ด้วย นั้น ก็ จะ เอา ไปทท ได้ หลาย อย่าง แล้ว เยอะ มาก แตก แห้ง เอา ไป ทำ อาหาร อื่น ได้ อีก เยอะ ตาแป๊ะ กิน ไม่ หมด ไข่ ก็ เก็บ เอา จาก เล้า บ้าง แต่ ส่วนใหญ่ ชอบ ซื้อ ไข่ เป็ด มา กิน มาก ว่า พวก ผัก ต่างๆ ไม่ ต้อง พูด ถึง มี ให้ กิน ทุก วัน เอา ไป ทำ กับ พวก ปลา ที่ ไม่ ต้อง ซื้อ หมู มี ซื้อ บ้าง ก็ เอา ไป ทอด บ้าง แกง บ้าง แดด เดียว บ้าง ส่วน เช้า ๆอยาก กิน พวก ของกิน เล่น ก็ ขน นม ครก แสน อร่อย เต็มไปด้วย หน้า กระ ทิ บวก หอม ขนม ตาล ที่ แม่ค้า เอา มา จาก ลูก ตาล สดๆมา ทำให้ กิน กลิ่น หอม แต่ ไกล ขนม กล้วย แสน อร่อย ข้าวต้มมัด ข้าวหลาม เผา เอง ข้าว เหนียว แดง ตะโก้ เปียก ปูน ฯลฯ ผม เคย ก็ อยู่ ใน ช่วง ไม่ มี ตู้เย็น ใน ตอน เด็ก มา ก่อน ไฟฟ้า ด้วย 
สมัย อยุธยา ตอน เช้า เขา ตื่น มา หุง หา อาหาร กัน ตั้งแต่ ตี สาม ตี สี่ นะ คุณ นึ่ง ข้าว ตำ พริก ตำ เกลือ เดิน ออก ไป เด็ด ผัก หญ้า แล้ว ปิ้ง ปลาช่อน ตาก แห้ง เนี่ย ประวัติศาสตร์ ของ ความ ฟิน ... 
โห นี่ คุณ อายุ เกิน สอง ร้อย ปี แล้ว ใช่ มั้ย เนี่ย 
สมัย โบราณ จริงๆ ชาว บ้าน ธรรมดา ลำบาก ครับ ข้าว ต้อง ตำ กิน เอง เกลือ ธรรมดา นี่ ไม่ใช่ หา มา ง่าย ๆกว่า จะ ติด เตาไฟ ได้ ไม้ ขีด ธรรมดา ยัง ไม่ มี เลย ครับ น้ำ ก็ ต้อง หาบ มา ใน ระบบ ศักดินา ถ้า ยัง อยู่ กับ มูลนาย ต้อง ไป ทำงาน ให้ มูลนาย ตามแต่ จะ เรียก อีก บางที ปี ละ 6 เดือน หรือ กว่า นั้น ก็ มี ปี ไหน น้ำ ท่วม หรือ แล้ง มาก เตรียม อดอยาก ได้ เลย อาหาร เช้า คง เป็น พวก ข้าว กับ ของแห้ง กับ ของ ที่ พอ จะ หา ได้ เพราะ ต้อง รีบ ไป ทำ นาค รับ 
อุ๊ย กะ เกี๊ยว 
เก่ง มาก ค่ะ ไร เฟิล สู้ ๆนะคะ เรา เก็บ เห็บ ออก จาก ตัว หมา ได้ ทุก วัน วัน ละ ตัว สอง ตัว เห็บ มี อันตราย มาก ถึงขนาด นี้ เชียว นะ คะ 
มะนิลาเล็ก ขนาด นั้น เลย รึ 
ขอโทษ ที่ นอก เรื่อง นะ ครับ จข กท. ย้อม ผม สี อะไร อะ ครับ 
ไป อยู่ ไหน ม๊าาา&nbsp;&nbsp; 
แฟน บอก ว่า \" ไม่ เห็น ตอน ใส่ เวลา ตาก ก็ มี คน เห็น เอง แหละ \" แฟน ผม ต้องการ อะไร จาก สังคม ??? 
<-plus->5 ทั้ง ชุด จะ มี แสง วิ้งๆ ด้วย ไหม ครับ เนี่ย - - 
เรา เคย ค่ะ ตอนนั้น หัวใจ เต้น เร็ว แล้ว ต้อง ติด แผ่น วัด คลื่น ไฟฟ้า หัวใจ ( EKG ) ที่ หน้าอก พอ คุณ พยาบาล เปิด เสื้อ เจอ บรา เรา ปุ๊บ เรา อาย มา กก กก กก เพราะ วัน นั้น ใส่ เสื้อ ใน ขาด ๆไป ก็ รู้ นะ ว่า วินาที นั้น พยาบาล ไม่ คิด อะไร หรอก แต่ เรา อาย มา กก กก กก กก 
ผม ถาม ใน มุมกลับ กัน &nbsp;&nbsp; เวลา คุณ เลือก กางเกง ใน คุณ จะ เอา สี ที่ ไม่ ชอบ มั้ย ผม นี่ มี อยู่ สอง สี คือ ดำ เทา &nbsp;&nbsp;&nbsp;&nbsp; เห็น แดง ส้ม เหลือง แป๊ดๆๆๆแล้ว จะ เป็น ลม ทั้งๆที่ มัน ก็ อยู่ ข้างใน เหมือนกัน 
คลิป สุดท้าย เป็น บ้าน เรา แซง ขวา แล้ว บีบ แตร ไล่ แน่ๆ - -\" ( ตอน ที่ เที่ยว ญี่ปุ่น ) ผม เคย ยืน รอ ข้าม ทางม้าลาย ไม่ มี ไฟ แดง รถ ขับ มา อย่าง ไว แล้ว หยุด ลง อย่าง ช้าๆ ผม งง เลย ให้ ผม ข้าม จริงๆ เหรอ ตัวเอง แบบ ว่า ไม่ เคย เจอ 555555<-plus-> 
มัน ยังไง ยังไง อยู่ นะ 
อยาก ทราบ ว่า ภายใน ที่นั่ง เบาะ หลัง HRV กว้าง พอๆกะ CIVIC มั้ย คะ หรือ เล็ก กว่า เยอะ 
เห็น รูป น้อง เบียร์ ไป กับ เก่ง บอก ไป ซ้อม คอนฯ ช้าง ของ พี่ โจอี้ ไง ลอง ตาม ดู นะ ว่า น้อง จะ ได้ ขึ้น คอน เปล่า 
กังฟู ครั้ง แรก ที่ ผม ได้ เห็น playground เล่น &nbsp;&nbsp; ใน คิด ว่า ไอ้ นัก ร้อง คน นี้ พลัง มัน เยอะ จัง ฟระ ครั้ง นั้น ผม อยู่ ใน งาน พอดี ..&nbsp;&nbsp;คลิป นี้ ผม ตัด มา เอง จาก แผ่น live in aday และ ผม ก็ ติดตาม วง นี้ มา ตลอด แต่ เอ๊ะ นี่ กระทู้ บิวนิ่ 5555&nbsp;&nbsp; 
แน่นอน ครับ แต่ ยัง ไม่ รู้ ไป ไหน ดี 
3 ใน 5 Hospital band ชื่อ นี้ ไม่ ได้ มา เพราะ โชค ช่วย สงสัย จริง ว่า ทีม แพทย์ ปืน มี อะไร ดี นักหนา นัก เตะ ใน ทีม ถึง ชอบ ไป เยี่ยมเยียน กัน จัง หรือ ว่า ... 
แหม่ หัวเราะ ไม่ ได้ ร่ำไห้ ไม่ ออก จริงๆ นึก ว่า แมนยู จะ เจ็บ แซง เอฟไป แล้ว ไหง ยัง ตาม อยู่ อีก หว่า ..ปล. เดี๋ยว คง ได้ เห็น ลุง เกา แก จัด 1 8 1 แหงมๆ 
แบบ นี้ ก็ ต้อง ดัน ISO สูง ใช่ มั้ย ครับ เพราะ แสง ไม่ ได้ โดน แบบ ตรงๆ 
อายุ เท่าไหร่ แล้ว คะ เพื่อน รุ่น เรา ( 33 ) ก็ ยัง เห็น ร่าเริง กับ ชีวิต โสด กัน เยอะ เลย 
อารมณ์ เดียว กะจขกท. เลย ค่ะ เพื่อน แต่ง จน จะ หมด แว้ว ทำไม เรา ถึง ไม่ มี ล่ะ แปลก จัง หุหุ 
ใส่ ปุ๋ย อะไร คะ &nbsp;&nbsp; ใส่ บ่อย แค่ไหน &nbsp;&nbsp; ที่ บ้าน โต ช้า มาก ๆค่ะ&nbsp;&nbsp; ขอบคุณ นะ คะ 
กะ ลัง ขยายอยุ่ เหมือนกัน อิอิปล. ถาม หน่อย ครับ ไม้ แบบ นี้ จิงๆ ไม่ ต้อง รดน้ำ ก้อ ได้ ชิมิ 
เห็น แขวน ไว้ สูงๆ เวลา รดน้ำ ต้อง ปีน ขี้น ไปรด หรือ ใช้ วิธี ไหน ครับ 
แฟน เรา ค่ะ ดูแล ตัวเอง ตั้งแต่ หัว จรด เท้า ... เสื้อผ้า ต้อง แบรนด์ เนม น้ำหอม แชนเนล ครีม บำรุง ผิว จัด เต็ม ตัด ผม ต้อง ร้าน ดัง เวลา ตื่น เช้า ไป ทำงาน ... นาง ตื่น เจ็ด โมง เข้า งาน เก้า โมง เรา ตื่น เจ็ด โมง เข้า งาน แปด โมง คือ นาง รีบ ตื่น มา แต่งตัว เซ็ต ผม แต่งตัว นาน กว่า นี่ แต่งหน้า อีก - - นี่ ต้อง คอย ทัก \" ตัวเอง จะ ไป ทำงาน หรือ เที่ยว \"\" ใส่ น้ำหอม เนี่ย จะ ไป ให้ ใคร ดม \" เอ๊ะ ... หรือ นาง มุ่ง หวัง จะ หา แฟน ใหม่ คะ 555 
มี โอกาส คง ได้ ไปแสม สาร บ้าง ได้ ข่าว ว่า มี นีโม ใช่ไหม ครับ ^^ 
น่า คนละ ขาม นะ ครับ เพราะ ที่ จ. ตราด ก็ มี เกาะ ขาม ใช่ไหม ครับ 
จขกท ใช้ กล้อง อะไร ถ่าย หรอ คับ ดู มา หลาย กระ ทูด แล้ว ชัด ดี จัง 
ลอง ไป ทำ บ้าง ดี กว่า ^^ 
รูป ที่ สาม คน นั้น รอดชีวิต กลับ มา ไหม ครับ ... 
แถว บ้าน ผม อายุ บ้าน ราว สี่ สิบ ปี แล้ว เห็น บ้าน ใหน ประกาศ ขาย ไม่ นาน ก็ มี คน ซื้อ ซื้อ แล้ว ก็ รื้อ สร้าง ใหม่ ผรม. สร้าง บ้าน ผม เสร็จ ปีก ว่า แล้ว ยัง วนเวียน รับ งาน สร้าง บ้าน อยู่ เลย 
ดึง อะไร ฮะ นั้น &nbsp;&nbsp;// อินโนเซน // 
ยัง นึก ภาพ ไม่ ออก ครับ ถ้า กราวด์ หลุด ไฟ เลี้ยง มัน น่า จะ ตัด ไม่ใช่ หรือ ครับ แล้ว ตัว connector ก็ ออกแบบ มา ให้ เขี้ยว ไฟ เลี้ยง ยื่น ออก มา มาก กว่า เขี้ยว ไฟดาต้า พอสมควร 
ใคร ว่า ไม่ เห็น เป็นไร .... แน่ จริง ลอง ดึง ตอน PC กำลัง เขียน ลง Flash driveซิ&nbsp;&nbsp; 
การ ตั้ง ค่า Policies ให้ กับ External Harddisk ( Quick Removal ) ใช้ได้ จริง หรือเปล่า กลัว เสีย เหมือนกัน 
ดู หนัง สายลับ ขโมย ไฟล์ เสร็จ กระชาก ออก ทุก คน ไม่ มี ใคร รอ eject เลย น่า จะ มี แบบ กรณี เงิบ ไฟล์ด๊อง โดน ปลด จาก ตำแหน่ง ซัก เรื่อง นะ 
สื่อ ไป ถึง แบบ นั้น หรอ????? แอบ ตกใจ 5555 
ภาค แรก ผม ก็ โหลด นะ หนัง Young Adult ดู ไม่ เข้า ทาง ผม .... แต่ ไม่ รู้ ทำไม หลังจาก ดู เสร็จ ตัดสินใจ อ่าน หนังสือ .... และ อ่าน ภาษา อังกฤษ ด้วย .... ผล ก็ คือ ..... เสร็จ มัน .... 
สงสัย ว่า ไป ชน รังแตน แต่ มี ผึ้ง ออก มา มัน เป็น สิ่ง เดียวกัน เหรอ???? 
เดี๋ยว ๆๆๆๆ แฟน ผม เป็น ผู้หญิง คร๊าฟฟฟฟฟฟฟ 
55555 สรุป ฟิน มั้ย คะ ??? 
อยาก ลอง ทำ ดูเหมือน กัน ค่ะ 5555 ไม่ ชอบ อะไร ซ้ำ ๆกับ คนอื่น ชาย ทำ ได้ แล้ว ทำไม หญิง จะ ทำ ไม่ ได้ ? 
แล้ว คน ที่ สายตา สั้น เอียง เยอะ แล้ว ตา ใส่ คอนแทค ไม่ ได้ อะ ( หมอ ห้าม เด็ดขาด ) &nbsp;&nbsp; แบบ ดำ แค่ ตอน ไปเที่ยว &nbsp;&nbsp; จะ ให้ ซื้อ แว่น ดำน้ำ เปลี่ยน เลนส์ ก็ แพง เกิน ใคร แนะนำ ได้ บ้าง 
Taxi ไป กลับ เท่าไหร่ เหรอ คะ 
รอ เรื่อง นี้ Idolising แนว เรื่อง ก็ เหมาะ จะ ทำ อนิเม มาก นะ ไม่ รู้ ทำไม ยัง ไม่ มี คน ซื้อ มา ทำ ซะ ที ( มังกะ ก็ ยัง ไม่ มี เลย มั้ง -3- ) 
ถ้า เอา ไป สี ชา แล้ว ไม่ น่า จะ ใส่ ได้ แล้ว นะ ครับ 
เลนส์ Hitop ไหว ไหม ครับ 
งง กับ การ เซ็น เซอร์ เนอะ 
อยาก รู้ ว่า เขา จีบ ยังไง ครับ 
ผม ค่อนข้าง เหมือน คน ที่ สาม นะ ครับ แล้ว ก็ มอง ไม่ เห็น ว่า มัน ไม่ สมบูรณ์ ตรง ไหน เลย ครับ ปล ไม่ เห็นจะ เจอ ผู้หญิง แย่ง เลย ครับ 555 
แล้ว ผู้ชาย จะ ชอบ ผุ้ หญิง กะลีกะลาด บ้าง ไหม นะ 
ที่ไหน อ่ะะ 
เครื่องบิน ของ มาเลเซีย หาย ไป เฉยๆ จน ป่านนี้ ยัง หาไม่ เจอ ดาวเทียม ไป ทำ อะไร อยู่ ก็ ไม่ รู้ 
เกาะ แตน ใช่ ที่ สุ ราษ ฎณ์ ธานี หรือเปล่า ? เคย ได้ยิน มา เหมือน แต่ จริง เท็จ แค่ไหน ไม่ ทราบ 
ไม่ ได้ สงสัย เรื่อง เกาะ แต่ สงสัย อะไร คือ maodeep ครับ ใช่ ตัว เดียว กับ ตัว นี้ หรือเปล่า 
ควร ดึง กลับ มา ดี มั๊ย ~ 
ไม่ เข้าใจ ค่ะ ผม ไม่ ยาว คือ อะไร แต่ ถ้า ผม หัก อ่ะ เข้าใจ ต้อง ไป detox ผม ค่ะ ไป เอา สารเคมี ออก ก่อน นะ ไม่ งั้น บำรุง อะไร ไป ก็ ไม่ ค่อย นับ 
งง มันเป็นไปได้ ด้วย หรอ ?? ไม่ ยาว ขึ้น เลย จริงๆ หรอ&nbsp;&nbsp; ถ้า ใคร ย้อม ผม ก็ สังเกต ตรง โคน ก็ ได้ มัน ไม่ ยาว ขึ้น จริงๆ หรอ?&nbsp;&nbsp; เรา งง ไป หรือเปล่า 
สรุป คือ น้ำ ผลไม้ พวก นี้ ไม่ ได้ คั้น สดๆมา จาก ผลไม้ โดย ตรง ใช่ไหม ครับ มี ยี่ห้อ ไหน ไหม ที่มา ตรง ๆบ้าง 
งง กะ ปริมาณ ไฟเบอร์ ต่าง กัน ขนาด นี้ เชียว หรือ ดอย คำ ข้น กว่า 
กิน มะเขือเทศ พึ่ง รู้ ว่า ทำให้ แผลเป็น จาง จัด เลย ค่ะ 
เหรอ คะ แล้ว ใคร เก่ง กว่า นอย มั่ง อ่ะตอน นี้ 
ก็ น่า จะ ได้ สัญชาต ตาม พ่อ แม่ สิ ครับ 
แล้ว พวก น้ำ ขวด ๆอย่าง น้ำ สิง ละ ครับ เอา มา แช่ ก็ ขุ่น แสดง ว่า มี gas ใช่ไหม ครับ 
น่า กิน มาก เลย ค่ะ ซอส ถ้า ใช้ ไม่ หมด เก็บ ไว้ ใช้ ต่อ ได้ มั๊ย คะ ? หรือ มัน จะ ไม่ ค่อย อร่อย แล้ว หว่า ปล. ขี้เกียจ กะ ทำที เดียว เยอะๆ 
กี่แคล ค่ะ อิอิ 
ประตู ท่า แพ ใช่ไหม ครับ ? 
เพิ่ง ดู ไป หยกๆ &nbsp;&nbsp; ซี รีส์ เรื่อง นี้ &nbsp;&nbsp; ดู แล้ว ก็ สงสัย เหมือนกัน เลย ค่ะ The Blacklists&nbsp;&nbsp; ตอน 11&nbsp;&nbsp; ใช่ มั้ย อ่ะ ใน ซี รีส์ อธิบาย แบบ คคห . 3 ค่ะ 
ที่ ผม เห็น ก่อน นี้ จาก เว็ป และ ทาง เว็ป ที่ ว่า เครดิตไป ที่ ผม เชื่อ ว่า จริงๆ น่า จะ เครดิตไป ที่ สอง เว็ปหลัง มาก กว่า เว็ป ที่ จขกท เครดิตไป นะ ครับ 
แต่ละ คน หน้าตา ประหลาด แท้ 
ถ้า อย่าง นั้น อ่อน นุช จตุ จักร ก็ ต้อง ดับ ด้วย สิ ครับ - -\" 
Fantasia // Alice in wonderland ว่าแต่ Lion king นี่ ค้ำ คอร์ชิมิ? 
ดู ตั้งแต่ สโนว์ไวท์ ดู แบบ วีดีโอ ค่ะ ชอบ เพลง มาก ต้อง ร้อง ตาม ตลอด ตอน นี้ อยาก ได้ ซีดี ที่ เป็น แบบ ออ ริ จินอล มาก ไม่ ทราบ ว่า หา ซื้อ ได้ที่ ไหน บ้าง คะ 
ขว้าง หลบ ล่ะ ยัง มี อยู่ ไหม 
ขยับ CC มัน บ่งบอก ถึง อะไร ครับ เปรียบเทียบ ใน แง่ ไหน ผม ไม่ เข้าใจ ถ้า ใน สนาม แข่ง ตาม กา ละ เทศะมัน ก็ ใช่ ฝีมือ แปรผัน กับ cc แต่ นี่ มัน ท้องถนน เอา ศักดิ์ศรี ไป ผูก ติด กับ ปริมาตร กระบอกสูบ รถ มัน จะ ดี เหรอ ครับ พลังงาน จาก น้ำมัน เชื้อเพลิง มัน หมด โลก ได้ นะ ครับ 
กระจก มอง หลัง ทัศนวิสัย ดี แต่ แอบ หลอก ตานิดๆอารมณื ประมาณ ว่า ไกล แค่ไหน คือ ใกล้ และ สิ่ง ที่ ผม สงสัย ไอ่ ท่อ กลมๆข้างใต้ เนี่ย เค้า มี ไว้ ทำ อะไร ?? 
ตอน นี้ มี lx 125 vie ครับ &nbsp;&nbsp; ใช้ มา 1 ปี ละ โดย รวม ก็ พอใจ อยู่ &nbsp;&nbsp; แต่ บางที มา นั่ง คิด ดู ว่า ซื้อ มา ทำไม เนี่ย ไป ซื้อ พวก ฮอนด้ามา ขี่ ดี กว่า ไหม 
ท่อ สต็อกมัน ต้อง ได้ มาตรฐาน ยูโรปล่าว ครับ เลย เบา เขา กำหนด เสียง ดัง เป็น มลภาวะ อย่าง หนึ่ง 
ไม่ มี เพื่อน หรอ 
มี คลิป เหตุ การ หรือ คอนเสิตปี นั้น ไหม ครับ 
ทำที ละ เยอะ ๆ แล้ว เก็บ ไว้ กิน นาน ๆ ได้ ไหม ครับ และ อยู่ ได้ นาน แค่ไหน 
เค้า ลืม อะไร ไปป่าว ว่า เค้า เป็น แค่ แฟน . ไม่ใช่ เจ้าชีวิต นะ . เป็น เรา เลิก นาน แระ 
ห้าม เล่น เกมส์ โต แล้ว ... 
นั่ง ท้าย เครื่อง เล่น ไพ่ ได้ มั้ย ครับ ? ( เหมือน รถ ทัศนาจร อ่ะ ครับ ) 
มี แบบ นี้ ด้วย หรอ คะ เรา อ่าน แล้ว สยอง เรย 
เพื่อน ได้ เคย กิน ไมโล ของ จริง ไหม เนี่ย !!?? 
43-3 ผม ว่า ขาด ธาตุ เหล็ก อาจ จะ หาย แต่ อาจ ต้อง หา หมอ ฟัน เพิ่ม นะ ครับ 
ตด ออก มา จะ มี ฟอง ไหม ? 
ชอบ สบู่ เหมือนกัน ชอบ ซื้อ เก็บ ไว้ เป็น กิโล ๆสั่งที หลาย ๆโล ยัง กะ จะ ขาย เคย สั่ง มาก สุด 20 โล / ครั้ง ตอน นี้ มี เป็น หอม ชื่น จาย สะอาด ชอบ อาบน้ำ ด้วย โรคจิต ไหม คะ ? T^T 
ว้าย !!! 
