เก่ง มาก ครับ สุด ๆเลย แต่ คอนโดดี แล้ว เหรอ ที่ ซื้อ น่ะ ครับ 
ลูกสาว คน เดียว ทั้ง ผม ทั้ง เมีย มี การ ศึกษา ดี มาก แต่ ยอม แพ้ ใจ คุณ จริงๆ ชีวิต นี้ คุณ มี โอกาส สร้าง บารมี เยอะ จริงๆ 
รถ ป้าย แดง คอนโด ใหม่ ยังไง ขอ ให้ ผ่อน จน รอด ฝั่ง นะ ครับ 
จขกท . เก่ง มาก ๆค่ะ บอก ตรง ๆว่า อิจฉา ใน ความ ขยัน ของ เรา ทรัพย์สิน มา พร้อมกับ หนี้สิน T^T มี บ้าน สาม หลัง ที่ เป็น ชื่อ ของ ตัวเอง อีก หลัง เป็น ของ พ่อ แม่ สามี ตอน นี้ มี ภาระ อยู่ หลัง เดียว แต่ ก็ เหนื่อย พอตัว รถยนต์ อีก สอง คัน มี ภาระ คันนึง มอ เตอร์ไซค์ เพิ่ง หมด ภาระ ไป เมื่อ ต้น ปี เหนื่อย มา กก กก แต่ จะ สู้ ต่อไป กำลัง หา ทาง ปลด หนี้ และ เก็บ เงิน เพิ่ม ให้ มี หลัก ล้าน อยู่ T T อยาก ไป เรียน ตัด ชุด อยาก เรียน ทำ ขนม อยาก เรียน หลาย สิ่ง เอเวอ รี่ ติง จิงเกิลเบล มาก ๆสู้ ต่อไป ทาเคชิ!! 
น่าไปมากๆ อยาก ให้ จัด แบบ นี้ อีก บ้าง จัง ค่ะ 
รอ ๆๆๆรอ เธอ 
หึ หึ 
เป็น โครงการ อะไร ? สอบ ผ่าน แล้ว จะ ได้ ไป ทำ อะไร ครับ ? 
มาก ระ ตุ้น ต่อม กัน อีก แล้ว 
ชอบ คำพูด ที่ ทุก คน รู้ แล้ว ว่า คุณ เก่ง ตอน นี้ เหลือ เพียง แค่ ทำ อย่างไร ให้ เขา รัก 
ดู ดี กว่า ชุด เเรก เยอะ เลย ค่ะ ใช้ สีทอง เเล้วดู หรูหรา สวยงาม กว่า สี ชมพู เยอะ เพราะ ผิว เมญ่า เข้ม ใส่ สี ชมพู เเล้ว ไม่ อลัง เท่าไหร่ เจอ สีทอง เข้า ไป ! รู้ เรื่อง ! 
กรี๊ด ดดดดดดดดดดดดดดดดดด เค้า จิ้น คู่ นี้ เลย ** สอง คน เนี้ย จูงมือ มา ด้วยกัน จูงมือ ไป ด้วยกัน ... ผม นะ ผม 
มี Kiss กัน ด้วย อ่าาา 
ไป ซื้อ พิมพ์ มา บ้าง ดี กว่า มัว แต่ จับ จีบ อยู่ ได้ ตั้ง นาน ^^ 
ไป ถึง อเมริกา นึก ว่า สติสตังค์ จะ คงที่ พัง กว่า เดิม อีก ค่ะ &nbsp;&nbsp;^^ เห็น พวก เขา แฮปปี้ กับ การ ไป ทัวร์ ครั้ง นี้ แล้ว ก็ มี ความ สุข ตามแต่ เริ่ม คิดถึง แล้ว สิ เหมือน อยู่ ไกล กัน มาก ไม่ ชิน 
ลบ เถอะ ค่ะ ^[]^ 
ส่วนใหญ่ ที่ ไม่ ใช้ คือ มอ ไซ &nbsp;&nbsp; อยาก เลี้ยว ก็ เลี้ยว &nbsp;&nbsp; อยาก ออก ซ้าย ก็ ออก &nbsp;&nbsp; ไม่ ดู ขวา เล้ย&nbsp;&nbsp; ส่วนใหญ่ เป็น อย่าง นี้ จริงๆ &nbsp;&nbsp; ส่วน รถยนต์ พอ มี บ้าง แต่ น้อย &nbsp;&nbsp;&nbsp;&nbsp; แล้ว ก็ หมวก กัน น๊อค&nbsp;&nbsp; ไม่ เห็นจะ ใส่ กัน ถ้า ตำรวจ ไม่ กวดขัน &nbsp;&nbsp; พอ เค้า จับ ก็ บ่น ให้ ขับ ทั้ง mc และ รถยนต์ 
อย่าง นี้ ราคา สูง นะ คะ 
ที่ ต่าง ประเทศ บาง อาชีพ จำเป็นต้อง ใช้ ครับ &nbsp;&nbsp; แต่ ถ้า เป็น บริษัท ต่าง ชาติ ที่ ไทย อัน นี้ ก็ แล้วแต่ นโยบาย บริษัท จะ บอก ว่า ไม่ จำเป็น ถ้า บริษัท ไหน จำเป็น จะ ว่า ไง อ่ะ &nbsp;&nbsp;55<-plus-> 
เริ่ด มาก ค่ะ อัน นี้ น่า สนใจ มา กก กก กก กก กก กก เดี๋ยว ไป สอย แน่นอน ขอบคุณ ที่ รี วิว นะ คะ กระทู้ เลอ ค่า มากมาย 
คิด ตาม แล้ว จะ บ้า ตาย 
อ่าน ผ่านๆๆ แล้ว ต้อง กลับ ไป อ่าน ใหม่ รัก อะไร นะ ! 
สิ่ง นี้ ลอย เข้า มา ใน หัว ทันที ตอน เด็ก อยาก ได้ จะ เป็น จะ ตาย 
เล่น อะไร ไม่ รู้จัก เลย \\\\ เตรียม เงิน ไป หยอด เหรียญ เอา โร ตี สายไหม 
รอ อ่าน น่ะ ครับ อยาก ไป เหมือนกัน เก็บ ตัง แปร๊ บบ อิอิ 
ขอบคุณ ครับ 
เย็นตา โพ ผม ยัง กิน ผัก เเบบ นี้ เลย ครับ เดี๋ยว เสีย สิทธิ์ ร้าน ให้ มา 
มัน เข้า เครื่อง กัน ดี ครับ แต่ ก็ แล้วแต่ คน ชอบ ด้วย 
อิจฉา มากมาย &nbsp;&nbsp; หมอ หลุยส์ หมอ ต่าย 
ขี่ กัน มา เรื่อย ๆค่ะ ชม วิว สอง ข้าง ทาง บน ถนน ที่ เค้า ว่า กัน ว่า เป็น ถนน ลอยฟ้า ตรง ไหน สวย ก็ จอด รถ ถ่ายรูป กัน ค่ะ บน เขา อากาศ เย็น สดชื่น มาก ๆไปกัน ต่อ ดี กว่า ค่ะ หนทาง อีก ยาว ไกล 
555 ขอบคุณ ที่ ช่วย แก้ คำ ผิด ให้ ค่า &nbsp;&nbsp; 
ทะเล หมอก สวย มาก ค่ะ 
ดู วิว ดู เส้นทาง กัน ไป เรื่อย ค่ะ ขาก ลับ ทำเวลา ดี กว่า ขา มา เล็กน้อย ค่ะ 
ไป มา เมื่อ ปี ที่แล้ว สนุก มากมาย ครับ 
สุด ๆครับ&nbsp;&nbsp;&nbsp; เห็น แล้ว อิจฉา &nbsp;&nbsp; ขอบคุณ ครับ 
ก็ ยัง รัก โตโน่ นะ คะ น้อย ลง บ้าง เวลา เห็น รูป คู่ ป้า แอบ ใจหาย นีสนุง น้อง โตโน่ น่า จะ ได้ คน ดีๆกว่า นี้ ปล. ห้าม ตาม มา ด่า เพราะ ความเห็น ส่วน ตัว 
นี่ ก็ พูด เวอร์ ไป .. wish คัน เก่า ผม นั่ง 7 คน เต็ม คัน ไม่ เห็นจะ เมื่อย มากมาย อะไร ที่ เบาะ แถว สาม 
ถ้า ไล่ นิสสัน ไทย คง จะ ล้มละลาย แน่นอน เพราะ คน หัวกะทิ จาก ค่าย รถ ใหญ่ เล็ก เข้า มาบริษัท นี้ จะ ครึ่ง ค่อน ประเทศ ละ ผม ว่า องค์กร ห่วย ด้วย นะ คน ญี่ปุ่น หลาย คน ไร งี้ ต้อง แก้ ที่ องค์กร นะ และ คน ใน องค์กร พร้อม กันอ่ะ 
เงิน หมุนเวียน แล้ว เศรษฐกิจ ดี ผม ว่า ไม่ จริง ครับ ถ้า คิด งั้น เอา เงิน มา ให้ ผม ใช้ ฟรีๆ สัก พัน ล้าน สิ เดี๋ยว ผม หมุน ให้ เศรษฐกิจ ดี เอง เศรษฐกิจ จะ ดี ได้ ต้อง มี การ ผลิต อย่าง มี ประสิทธิภาพ ผลิต ใน สิ่ง ที่ คน ต้องการ โดย มี ความ สูญเปล่า น้อย ที่สุด 
อยาก อ่าน กระทู้ อา เซียน มา นาน เคย ตั้ง มา แต่ อีก รูปแบบ ค่ะ แบบ การ มี ขโมย &nbsp;&nbsp; การ ฆ่า การ แกร่ง แย่ง ที่อยู่อาศัย สถานที่ ทำงาน มัน จะ เป็น อย่างไร แบบ นั้น ค่ะ ไม่ ได้ ดู ดี มี ความรู้ แบบ คุณ แมงมุม ทำ กระทู้ ที่ ดิฉัน ตั้ง ครา นั้น ก็ โดน ด่า ค่ะ แต่ ช่าง เถอะ คน เขา มี ปาก ... ดิฉัน ตั้ง กระทู้ ล่อ เป้า ประจำ .. ไม่ รู้ เป็น ไง สิ !!! แต่ ชอบ กระทู้ คุณ นะ ได้ความ รู้ ดี ..... กระทู้ ห้อง เฉลิม กรุง เอา จริงๆ ใคร จะ ว่า ดิฉัน ก็ ว่า มา ได้ .. มี ของ คุณ แมงมุม ( ยักษ์ ) คน เดียว ที่ มี สาระ เข้า มา ห้อง นี้ ... ลาก ไป เถอะ ... ลาก ไป หาก ระ ทู้ดีๆยาก มาก ... ช่วย กดไลค์ ให้ ดิฉัน ด้วย ถ้า ถูกใจ คุณ ๆที่ เข้า มา อ่าน และ เห็นด้วย อยาก มี ไลค์ แข่ง กับ คุณ แมงมุม อ่ะ. ... ได้ โปรด กด ... ดิฉัน ไม่ เคย ขอ นะ ... เพิ่ง ขอ วันนี้ ได้ ไลค์ หลาย ตัว จะ เอา ไป ต้มยำ กิน ค่ะ 
ขอบคุณ พี่ แป๋ว มาก ค่ะ ปี ใหม่ นี้ จะ ยก ครอบครัว ไป ฮ่องกง บาง ที่ ที่ พี่ แป๋ว แนะนำ ยัง ไม่ เคย ไป จะ ได้ ไป ก็ คราว นี้ แหละ คะ 
จัด เพิ่ม ไป โจ๊ก วัน ทัน หมิ่น ติ่มซำ ไก้ว เหล่ งโก๊ว กงฉา&nbsp;&nbsp; ขนม ไข่ เฮีย แว่น นม ตุ๋น ขิง ซุปวอลนัท เอา ให้ พุง กาง ไป เลย 
ถ้า นี่ คือ ความคิด ของ คน เป็น พ่อ อย่า มี ลูก เลย ครับ คุณ คิด ถูก แล้ว 
สวย มาก เลย ค่ะ T v T 
ชิล มาก &nbsp;&nbsp; จน น่า อิจฉา 
ก่อน อื่น ต้อง ไป สมัคร เป็น หัวคะแนน ก่อน คับ &nbsp;&nbsp; ( อุ๊ปสสสสส สส.... ) 
โอ้ ยยย เห็น แล้ว หิว ววว 
อ๊ากกกกก ชีสสสสสสสสสสสสสสสสสสสสสสสสส 
เรา เคยชิน กัน ไป เอง ครับ &nbsp;&nbsp; มื้อ เช้า ไทย แท้ๆ มัน ก็ จะ เหมือน มื้อ กลางวัน มื้อ เย็น ที่ เรา คิดๆออก นั่น แหล่ะ ครับ เพราะ ส่วนใหญ่ ก็ จะ กิน เหมือน ๆกัน ทั้ง 3 มื้อ ใน แต่ละ วัน สลับ ๆกันไป 
เคย เห็น แม่ เฒ่า ( ยาย ) กิน ข้าว กับ ปลา ย่าง แกง ที่ เหลือ จาก เมื่อวาน บางครั้ง ก็ ไป เก็บ ไข่ ไก่ ใน เล้า มา ทอด แล้ว หา ผัก ที่ มี อยู่ รอบ ๆบ้านมา ผัด ทุก ครั้ง ที่ แม่ พา ไป หา เรา จะ ค้างคืน อาหาร จะ เป็น แบบ นี้ ทุก ครั้ง บางที เวลา พวก เรา ไป ถึง น้า ๆก็ จะ แบ่ง หน้า ที่ กัน คน หนึ่ง ไป หา ปลา อีก คน ก็ ตำ พริก แกง และ หา ผัก รอ ไม่ ถึง ชั่วโมง เรา ก็ จะ ได้ กิน พูด แล้ว คิดถึง ทุก ท่าน อีก ไม่ นาน ก็ คง ได้ เจอ กัน ตอน นี้ ก็ 64 แล้ว ขอ อีก สัก 30 นะ รอ ดู หลาน เรียน จบ ก่อน 
เค้า เรียก ขี่ ม้า ครับ .. ใช้ ผ้า สี ดำ หรือ สี ทึบ พัน กาบ มะพร้าว หนาว ๆคาด แบบ โกเต๊กซ์ สมัย นี้ แหละ &nbsp;&nbsp; แกะ ผ้า ออก มา ซัก ที น้ำ แดง เลย .. 
คิดถึง บ้าน เลย 
โอย ยย ร้องไห้ เบ ยยยยยยยย 
มัน เป็นความ สุข ใน ใจ ค่ะ ใต้ ยืด ยีนส์ มี ลูกไม้ ฝรั่งเศส ซ่อน อยู่ ถึง กาย หยาบ พวก เรา เป็น พัง แก่ ๆ&nbsp;&nbsp; แต่ กาย ละเอียด เป็น ระดับ นาง แมว ป่า นะ เอ้า 555555 
มอ ปลาย / มหา ลัย อยู่ หอ กับ แฟน เยอะแยะ ไป ค่ะ 
กฏ หมาย เค้า เข้ม คน ของ เค้า มี วินัย &nbsp;&nbsp; การ ป้องกัน ตลอดจน วินัย เข้มงวด ของ คน มัน ต่อย อด ให้ คน ของ เค้า จำเป็นต้อง มี ชีวิต ยืนยาว เพราะ ประเทศ ญี่ปุ่น เค้า เห็น ความ สำคัญ กับ ประชากร ส่วน ประเทศ ของ เรา มัน สุด จะ บรรยาย 
ไม่ รู้ ทำไม เรา ดูบิว แล้ว นึกถึง พราย ปฐม พร ปฐม พร ขึ้น มา ถึง ขั้น ต้อง ไป เปิด ฟัง เพลง เก่า ๆ ของ พราย ด้วย ความคิด ถึง เลย 
ยัง เร็ว กว่า ดาต้า โทรศัพท์ แถว บ้าน เรา อีก นะ 555 
( อัน นี้ ไม่ ได้ เป็น คำตอบ แบบ วิชาการ นะ ) จริงๆ ประเทศ ที่ มี เทคโนโลยี สูง ๆก็คง มี ที่ เป็น ภาพ สี แหละ ครับ เพียงแต่ว่า ประเทศ เจ้าของ ดาวเทียม หรือ ยานอวกาศ นั้น แบ่ง มา ให้ ชม ใน แบบ ขาว ดำ เค้า ลงทุน ไป เป็น พัน ล้าน คง ไม่ ได้ ถ่าย ให้ เรา ชม ฟรี ๆทั้งหมด หรอก ครับ อะไร เจ๋งๆเค้า ก็ เก็บ ไว้ ดู เอง หรือไม่ก็ เอาไว้ ต่อรอง หรือ สร้าง ความ ได้เปรียบ อย่าง อื่น ได้ อีก เยอะ แล้ว เค้า ก็ คง ไม่ บอก ชาว โลก ทั้งหมด หรอก ว่า ตอน นี้ โครงการ อวกาศ เค้า ไป ถึง ขั้น ไหน แล้ว ให้ มี ข่าว อย่าง มาก ก็ ดวงจันทร์ ดาว อังคาร บ้าง หละ ได้ยิน มา หลาย สิบ ปี คิด หรือ ว่า ยัง อยู่ ที่ เดิม ป่านนี้ ไป ไกล มาก แล้ว หละ แต่ ไม่ มี ใคร มา นั่ง ประกาศ ให้ ใคร รู้ หรอก ข้อมูล ที่ เป็นความ ลับ ก็ ยัง มี ลับ กว่า อีก ไม่ รู้เท่า ไร จริงๆ ถ้า เปลี่ยน คำถาม เป็น ประมาณ ว่า น่า จะ มันส์ดี นะ .... ตอน ไล่ มา ถึง ประเทศ ไทย น่ะ 
ว่า ที่ แม่ ผัว ตัว แสบ 
นอบน้อม กับ เลีย นี่ ต้อง แยกแยะ ให้ ออก นะ เคอะ 5555 
เจ๋งสุดๆ ถ้า สามี เรา เป็น แบบ สามี คุณ สัก ครึ่ง ก็ คง ดี ^ ^ 
โอ๊ย สวย น่ารัก มาก อยาก ได้ ลูกสาว หน้าตา แบบ นี้ คง จะ จับ เล่น แต่งตัว เป็น ตุ๊กตา สนุก เลย 
เห็น แล้ว อยาก มี ลูก ทันที !! 
มันโหวงๆ ใช่ คะ ความรู้ สึก นั้น แหละ ใช่ เลย ปกติ เรา ร่าเริง กับ ความ โสด นะ อายุ 33 ละ แต่ รอบ นี้ บอก เลย มันโหว่งๆ เพราะ เพื่อน แต่ง กัน ไป หมด แล้วๆ 
คิด เหมือนกัน เลย ครับ ... เพื่อนๆ ที่ แต่งงาน ไป มัน มั่นใจ ได้ ไง ว่า จะ หา เลี้ยง ดูแล ครอบครัว ให้ มี ความ สุข ได้ ผม คิด ไม่ ออก เลย มอง ไม่ เห็น ภาพ 555 
คานน แล้ว ฮับ 
สังคม คุณภาพ ชีวิต กฎ ระเบียบ การ ปฎิบัติ ตัว แนวคิด ต่าง กัน ค่ะ พ่อ แม่ บุญธรรม คน อังกฤษ แท้ เกษียณ แล้ว ขาย บ้าน แล้ว ย้าย มา อยู่ ไทย ค่ะ ซื้อ บ้าน อยู่ ภูเก็ต กิน เงิน บำนาญ อยู่ อย่าง สบาย เที่ยว ต่าง ประเทศ ตลอด เขา บอก อยู่ ที่ นี่ สบาย ดี ถึง ไม่ สงบ เรียบ ง่าย เหมือน บ้านเมือง เขา แต่ เขา ชอบ บ่น ให้ ฟัง ว่า เสีย ภาษี โหด มาก และ ก็ เวลา ทำงาน คือ ทำงาน จริงจัง ไม่ มี เล่น ตรง ต่อ เวลา มาก ไม่ มี อลุ่มอล่วย เวลา พัก ก็ เต็มที่ &nbsp;&nbsp;&nbsp;&nbsp; ส่วน นิสัย ใจคอ ชีวิต การ กิน การ อยู่ การ นอน การ เที่ยว การ เล่น อัน นี้ เรา ว่า ขึ้นอยู่กับ บุคคล ค่ะ มี เพื่อน หรือ รุ่น พี่ หลาย ประเทศ ก็ ต่าง กัน ไป ส่วน ตัว ชอบ คน ญี่ปุ่น ค่ะ มี ระเบียบ เคารพ กฎ และ สิทธิ คนอื่น เฟรนด์ลี่ แม่ บุญธรรม เรา ระเบียบ จัด กิน ข้าว ที ต้อง มี พิธีรีตอง เยอะแยะ ห้าม ลุก ไป เข้า ห้องน้ำ ขณะ กำลังกิน ห้าม รับ โทรศัพย์ ต้อง จัด โต๊ะ โดย มี ที่ รอง จาน ช้อน 3คัน3 แบบ แก้ว อยู่ ขวามือ มีด - ซ้อม วาง ให้ ถูก เตรียม จาน ไว้ สำหรับ เมนู ของหวาน ห้าม ลุก หนี ถ้า คน ใด คน หนึ่ง ใน โต๊ะ ยัง กิน ไม่ เสร็จ ทุก ครั้ง ที่ ลุก หยิบ ของ ต้อง ขอ อนุญาต ห้าม นอน บน โซฟา โอ้ย เยอะ !!!! แต่ ลูก ๆเขา ไม่ เป็น แบบ นี้ นะ คือ ทำ อะไร ก็ ได้ แค่ ไม่ เสีย มารยาท พอ แต่ ลูก เขา จะ เยอะ เรื่อง การ เรียน การ ทำงาน เพราะ บ้านเมือง เขา คือ ถ้า อายุ 18 แล้ว ส่วนมาก จะ ต้อง ออก จาก บ้าน ไป หา งาน ทำ เช่า ห้อง อยู่ เอง ดูแล ตัวเอง ทุก อย่าง ซึ่ง มา เทียบ กับ ของ เรา คือ ส่วนมาก พ่อ แม่ จะ ส่งเสีย ทุก อย่าง เรา เลย โดน ด่า โดน กระแนะกระแหน ตลอด ส่วน เพื่อน ชาติ อื่น ส่วนมาก เป็น คน ชิลๆกัน เลย ไม่ มี อะไร มาก มี ก็ แต่ เพื่อน อินเดีย จะ แปลก ๆหน่อย เอ๊ะ อัน หลัง นี่ เอเชีย นี่ หว่า 55 
จาก การ ทำงาน กับ ฝรั่ง และ อยู่ เมือง ฝรั่ง เรา ว่า ฝรั่ง เขา ไม่ โกรธ ง่าย งอน ง่าย เหมือน ไทย หลาย คน อะไร นิด อะไร หน่อย ก็ โกรธ เรา ว่า นี่ เป็น ส่วน ดี ของ ฝรั่ง อีก อย่าง เขา รัก ใน อิสระ เสรีภาพ ความ เป็น ส่วน ตัว เป็น ตัว ของ ตัวเอง สูง ดังนั้น ฝรั่ง หลาย คน ถึง อยาก ออก ไป อยู่ เอง ไม่ อยาก อยู่ กับ ครอบครัว ถ้า เทียบ กับ คน ไทย ก็ ถือว่า ฝรั่ง ย้าย ไป อยู่ เอง เมื่อ อายุ ยัง น้อย กว่า คน ไทย อีก อย่าง จาก ที่ เรา เห็น และ ได้ คุย กับ เพื่อน ฝรั่ง หลาย คน เขา เรียน ใน สิ่ง ที่ เขา ชอบ เขา รู้ ว่า เขา อยาก ทำ อะไร อยาก เป็น อะไร โดย ไม่ ต้อง กลัว ว่า พ่อ แม่ จะ ไม่ ปลื้ม เหมือน คน ไทย บาง คน 
เพื่อน เรา จาก ยุโรป ทำงาน ใน บริษัท ใหญ่ โต ใช้ เงิน ประหยัด มาก จะ ซื้อ อะไร ใช้ อะไร คิด ทุก อย่าง ส่วน เงิน ที่ เหลือ ออม ไว้ และ เอา ไป ลงทุน ให้ งอกเงย พอ สิ้น ปี ได้ โบนัส ก็ มา เที่ยว ประเทศ ใน เอเชีย เช่น ไทย ญี่ปุ่น ที่ เค้า ดูชิล เพราะ ตอน เค้า อยู่ บ้าน เค้า เค้า ใช้ เงิน อย่าง ประหยัด และ วางแผน ทำให้ มี เงิน เก็บ และ เงิน เหลือ สำหรับ ใช้ สบาย ๆในวัน พักผ่อน ส่วน เรา เหรอ? ใช้ เงิน ใน อนาคต ล่วงหน้า ไป แล้ว T T 
น่า ไป มาก คร้าาาาาาาาาาาาาาาา&nbsp;&nbsp;ตาร้อนๆ ต้อง ไป ให้ ได้ 
คิดถึง กระต่าย ที่ บ้าน จัง แง งง งง 
เมือง ไทย น่า จะ มี บ้าง นะ 
ถ้า ได้ ไป คง จะ ฟินน่าดู เลย ตอน นี้ เลี้ยง อยู่ 2 ตัว ค่ะ อยาก ไป จัง เลย หน่อ ออ ออ 
ดู แล้ว รู้สึก ตา ร้อนๆ ยังไง ไม่ รู้ แหะ 
ผม นี้ อิจฉา ท่าน จริง ๆ 
มา รอ ชม ครับ อิจฉา ด้วย iceland ฟ้า ใส มาก ผม ไป นี่ ฟ้า หม่น สนิท 
ห้าม ทำ นม ห้าม ศัลยกรรม ค่ะ &nbsp;&nbsp; อัน นี้ เด็ดขาด มาก อยาก หลอย ทำ ตา สอง ชั้น มาก 555 
เหมือนกัน เลย เรา ก็ กิน แต่ ตอน นี้ เลิก แล้ว นะ คะ ^^ ตอน กิน แล้ว เรา รู้สึก มี ความ สุข มาก หอม ๆเรา ชอบ นก แก้ว เขียว ที่สุด เอิ่ม ตอน นี้ เลิก แล้ว จริง ๆ ค่ะ 
